Senador,sexo,Distrito (id),edad,estadocivil,religion,Juramento,JuramentoExtra,orientacion,Distrito (nombre),PARTIDO POR EL QUE INGRESÓ,Bloque,EMAIL,TELEFONO,FACEBOOK,TWITTER,INSTAGRAM,YOUTUBE,PosicionCON_MODIF,FuentedeVotoConModif,PosicionFrenteAlOrig,Fuente,Comentarios,fechaDeLaFuente,comienzo,fin,comoVotoESI,Hijes,ComSalud,ComJusticia,ComPresup,ComAsuntConst
"AGUILAR, EDUARDO ALBERTO",V,22,46,En convivencia,Católica,,,pj,Chaco,FRENTE PARA LA VICTORIA,JUSTICIALISTA,eduardo.aguilar@senado.gob.ar,1200/01,https://www.facebook.com/EduardoAguilarChaco/,@eduar_aguilar,https://instagram.com/,https://youtube.com/user/liceduardoaguilar,A Favor,,A Favor,http://www.chacodiapordia.com/2018/06/15/estoy-a-favor-de-la-legalizacion-del-aborto-confirmo-el-senador-aguilar/,,,2013-12-10,2019-12-09,,S/D,SI,,,
"ALMIRÓN, ANA CLAUDIA",M,18,34,Soltero,Católica,"Dios, la Patria y los Ss. Ee.",por Néstor y Cristina,fpv,Corrientes,ALIANZA FRENTE PARA LA VICTORIA,FRENTE PARA LA VICTORIA - PJ,ana.almiron@senado.gob.ar,1026/22,https://www.facebook.com/anaalmironcorrientes/,@AnitaAlmiron,,,A Favor,Lo dijo en la sesion,A Favor,https://twitter.com/anitaalmiron?lang=es,,,2015-12-10,2021-12-09,,1,,,,
"ALPEROVICH, JOSÉ JORGE",V,90,62,Casado,Judía,Dios y la Patria,,pj,Tucumán,ALIANZA FRENTE PARA LA VICTORIA,JUSTICIALISTA,jose.alperovich@senado.gob.ar,1355/56/57,,@JalperovichOK,,,En Contra,https://twitter.com/A24COM/status/1027166394247532544?s=19,En Contra,https://www.lanacion.com.ar/2148160-aborto-hay-35-senadores-en-contra-26-a-favor-y-11-sin-definir,,,2015-12-10,2021-12-09,,4,,,,
"BASUALDO, ROBERTO GUSTAVO",V,70,60,Divorciado,Católica,"Dios, la Patria y los Ss. Ee.",,cambiemos,San Juan,ALIANZA CAMBIEMOS SAN JUAN,PRODUCCIÓN Y TRABAJO,roberto.basualdo@senado.gob.ar,1250/51/52/53/54/55,https://www.facebook.com/rgbasualdo/,@RGBasualdo,,,En Contra,,En Contra,http://www.diariodecuyo.com.ar/politica/La-guia-del-aborto-divide-a-precandidatos-a-gobernador-20150630-0062.html,,30/06/15,2017-12-10,2023-12-09,A Favor,3,,,,
"BLAS, INÉS IMELDA",M,10,58,Casado,NO CONTESTA,"Dios, la Patria y los Ss. Ee.",,pj,Catamarca,ALIANZA FRENTE PARA LA VICTORIA,JUSTICIALISTA,ines.blas@senado.gob.ar,1401/03 - 1415,https://www.facebook.com/senadorainesblas/?fref=ts,@SenadoraBlas,,,En Contra,,En Contra,https://www.facebook.com/senadorainesblas/posts/1751633288283409,,31/07/18,2015-12-10,2021-12-09,,S/D,,,,
"BOYADJIAN, MIRIAM RUTH",M,94,51,Casado,Cristiana,,,cambiemos,Tierra del Fuego,MOVIMIENTO POPULAR FUEGUINO,MOVIMIENTO POPULAR FUEGUINO,miriam.boyadjian@senado.gob.ar,1092/93,https://www.facebook.com/miriam.boyadjian/?fref=ts,@BoyadjianMiriam,,,En Contra,Lo dijo en la sesion,En Contra,https://twitter.com/BoyadjianMiriam/status/965669991352848384?ref_src=twcamp%5Ecopy%7Ctwsrc%5Eandroid%7Ctwgr%5Ecopy%7Ctwcon%5E7090%7Ctwterm%5E2,,19/02/18,2013-12-10,2019-12-09,,3,,,,
"BRAILLARD POCCARD, NÉSTOR PEDRO",V,18,63,Casado,Católica,"Dios, la Patria y los Ss. Ee.",,cambiemos,Corrientes,ALIANZA ENCUENTRO CORRIENTES,FRENTE PRO,nestor.braillardpoccard@senado.gob.ar,3186/87/88/89,https://www.facebook.com/miriam.boyadjian/?fref=ts,@PedroBraillardP,,,En Contra,,En Contra,https://www.ellitoral.com.ar/nota/2018-2-25-4-0-0-aborto-el-debate-que-se-viene-tiene-a-los-legisladores-con-posturas-a-favor-y-en-contra,,25/02/18,2015-12-10,2021-12-09,,3,SI,SI,,SI
"BRIZUELA Y DORIA DE CARA, OLGA INES",M,46,46,Divorciado,Católica,"Dios, la Patria y los Ss. Ee.",,cambiemos,La Rioja,CAMBIEMOS FUERZA CIVICA RIOJANA,UNIÓN CÍVICA RADICAL,ines.brizuela@senado.gob.ar,,https://www.facebook.com/miriam.boyadjian/?fref=ts,@ines_byd,,,En Contra,,En Contra,https://twitter.com/ines_byd/status/1011972653140279296,,27/06/18,2017-12-10,2023-12-09,,2,,SI,,SI
"BULLRICH, ESTEBAN JOSE",V,06,48,Casado,Católica,"Dios, la Patria y los Ss. Ee.",,cambiemos,Buenos Aires,CAMBIEMOS BUENOS AIRES,FRENTE PRO,esteban.bullrich@senado.gob.ar,,https://www.facebook.com/miriam.boyadjian/?fref=ts,@estebanbullrich,,,En Contra,,En Contra,https://www.lanacion.com.ar/2048946-esteban-bullrich-ni-una-menos-cambiemos-aborto,,01/08/17,2017-12-10,2023-12-09,En Contra,5,,,SI,
"CASERIO, CARLOS ALBERTO",V,14,67,Casado,Católica,"Dios, la Patria y los Ss. Ee.",,pj,Córdoba,ALIANZA UNIÓN POR CÓRDOBA,JUSTICIALISTA,carlos.caserio@senado.gob.ar,1359/60,https://www.facebook.com/miriam.boyadjian/?fref=ts,@CaserioAlberto,,,A Favor,Es impulsor de las modif,No confirmado,https://www.lanacion.com.ar/2153304-los-cambios-al-proyecto-del-aborto-alterarian-la-paridad-en-el-senado,,,2015-12-10,2021-12-09,Ausente,S/D,,,,
"CASTILLO, OSCAR ANÍBAL",V,10,64,Casado,Católica,Dios y la Patria,,cambiemos,Catamarca,FRENTE CÍVICO Y SOCIAL,FRENTE CÍVICO Y SOCIAL DE CATAMARCA,castillo@senado.gob.ar,1395 - 1398,,@Oacastillo,,,A Favor,,A Favor,https://twitter.com/INFOnews/status/1007419920806760449,https://www.elancasti.com.ar/politica-economia/2018/6/14/oscar-castillo-votara-favor-de-la-despenalizacion-del-aborto-374133.html,,2015-12-10,2021-12-09,Ausente,2,,SI,,SI
"CATALÁN MAGNI, JULIO CÉSAR",V,94,49,Casado,Católica,,,pj,Tierra del Fuego,FRENTE PARA LA VICTORIA,JUSTICIALISTA,julio.catalanmagni@senado.gob.ar,3462- 3464 - 3465,https://www.facebook.com/JulioCatalanMagni,@j_catalanmagni,,,A Favor,,A Favor,https://m.facebook.com/story.php?story_fbid=1601985123213409&id=255640567847878,,,2013-12-10,2019-12-09,,4,SI,,,
"CATALFAMO, MARIA EUGENIA",M,74,30,Soltero,Católica,"Dios, la Patria y los Ss. Ee.",,otros,San Luis,FRENTE UNIDAD JUSTICIALISTA SAN LUIS,UNIDAD JUSTICIALISTA,eugenia.catalfamo@senado.gob.ar,,https://www.facebook.com/JulioCatalanMagni,@eugecatalfamo,,,Se Abstiene,"confirmado, licencia",Se Abstiene,http://www.lapoliticaonline.com/nota/114288-pichetto-negocia-cambios-a-la-ley-del-aborto-y-suma-el-voto-de-pereyra/,PROBABLEMENTE AUSENTE POR EMBARAZO,,2017-12-10,2023-12-09,,S/D,SI,,,
"CLOSS, MAURICE FABIAN",V,54,46,Casado,Católica,"Dios, la Patria y los Ss. Ee.",,otros,Misiones,FRENTE RENOVADOR DE LA CONCORDIA,MISIONES,maurice.closs@senado.gob.ar,3240 - 3285 3288,https://www.facebook.com/JulioCatalanMagni,@mauricloss,,,En Contra,,En Contra,https://twitter.com/madresenred/status/1012696115358023684,http://www.agenciahoy.com/notix/noticia/politica/113264_maurice-closs-entre-los-senadores-que-rechazan-el-proyectonbspdel-aborto-y-apoya-las-modificaciones.htm,29/06 y 01/07/18,2017-12-10,2023-12-09,En Contra,3,,,,
"COBOS, JULIO CÉSAR CLETO",V,50,62,Divorciado,Católica,"Dios, la Patria y los Ss. Ee.",,cambiemos,Mendoza,ALIANZA CAMBIEMOS,UNIÓN CÍVICA RADICAL,julio.cobos@senado.gob.ar,1451 -1453,https://www.facebook.com/JulioCesarCobos,@juliocobos,https://instagram.com/,https://youtube.com/,En Contra,,En Contra,https://www.mdzol.com/nota/799767-aborto-legal-asi-votaran-los-senadores-por-mendoza/,,14/06/18,2015-12-10,2021-12-09,,3,,,SI,
"COSTA, EDUARDO RAUL",V,78,56,Casado,Católica,"Dios, la Patria y los Ss. Ee.",,cambiemos,Santa Cruz,UNION PARA VIVIR MEJOR CAMBIEMOS,UNIÓN CÍVICA RADICAL,eduardo.costa@senado.gob.ar,,https://www.facebook.com/JulioCesarCobos,@EduardoCostaSC,https://instagram.com/,https://youtube.com/,A Favor,https://twitter.com/TV_Publica/status/1024785580234702848,No confirmado,https://www.infobae.com/circulo-rojo/2018/06/27/legalizacion-del-aborto-dos-votos-ni-que-pueden-ser-clave-en-el-senado/,,27/06/18,2017-12-10,2023-12-09,,2,,,,
"CREXELL, CARMEN LUCILA",M,58,45,No contesta,NO CONTESTA,,,otros,Neuquén,MOVIMIENTO POPULAR NEUQUINO,MOVIMIENTO POPULAR NEUQUINO,lucila.crexell@senado.gob.ar,3550,https://www.facebook.com/lucilacrexell/?fref=ts,@LucilaCrexell,,,Se Abstiene,,Se Abstiene,http://www.parlamentario.com/noticia-111250.html,,11/07/18,2013-12-10,2019-12-09,,S/D,,,,
"DE ANGELI, ALFREDO LUIS",V,30,61,Separado,Católica,,,cambiemos,Entre Ríos,ALIANZA UNIÓN POR ENTRE RÍOS,FRENTE PRO,alfredo.deangeli@senado.gob.ar,3580/81/82/83/84,,@alfredodeangeli,,,En Contra,,En Contra,http://paginapolitica.com/actualidad/de-angeli-pidioacute-tiempo-para-debatir-el-aborto-en-el-senado.htm,,25/06/18,2013-12-10,2019-12-09,,3,,,,
"DURANGO, NORMA HAYDÉE",M,42,65,Divorciado,Católica,Dios y la Patria,,pj,La Pampa,ALIANZA FRENTE P/VICTORIA (PERONISMO PAMPEANO),PARTIDO JUSTICIALISTA LA PAMPA,norma.durango@senado.gob.ar,1330/31,,@norma_durango,,,A Favor,Lo dijo en la sesion,A Favor,http://www.eldiariodelapampa.com.ar/index.php/111-portada/principal/40565-el-aborto-interpela-a-legisladores-y-agita-las-redes-sociales,,,2015-12-10,2021-12-09,,2,,,,
"ELÍAS DE PEREZ, SILVIA BEATRIZ",M,90,53,Casado,Católica,"Dios, la Patria y los Ss. Ee.",,cambiemos,Tucumán,ALIANZA CAMBIEMOS,UNIÓN CÍVICA RADICAL,silvia.elias@senado.gob.ar,3508/09/10/11/12/13,https://www.facebook.com/silvia.eliasdeperez,@silviaEdePerez,,,En Contra,,En Contra,https://www.lagaceta.com.ar/nota/648645/politica-local/aborto-sazono-debate-aspirantes-al-senado.html,,06/08/15,2015-12-10,2021-12-09,,S/D,SI,SI,SI,
"ESPÍNOLA, CARLOS MAURICIO",V,18,46,Casado,Católica,"Dios, la Patria y los Ss. Ee.",,pj,Corrientes,ALIANZA FRENTE PARA LA VICTORIA,JUSTICIALISTA,carlos.espinola@senado.gob.ar,1222/23/24/25 -3183 -3190,,@espinolacamau,,,En Contra,,En Contra,https://www.clarin.com/politica/fiad-espinola-despenalizacion_0_r1USUIlf7.html,,,2015-12-10,2021-12-09,,S/D,,,SI,
"FERNÁNDEZ DE KIRCHNER, CRISTINA E.",M,06,65,Viuda,Católica,"Dios, la Patria y los Ss. Ee.",,fpv,Buenos Aires,UNIDAD CIUDADANA,FRENTE PARA LA VICTORIA - PJ,cristina.fernandez@senado.gob.ar,1315 / 17 / 18,,@CFKArgentina,,,A Favor,,A Favor,https://twitter.com/SenadoresFPVPJ/status/1007311562774900736,,,2017-12-10,2023-12-09,Ausente,2,,,SI,SI
"FERNÁNDEZ SAGASTI, ANABEL",M,50,33,Soltero,NO CONTESTA,La Patria,por el pueblo de Mendoza y Néstor Kirchner,fpv,Mendoza,ALIANZA FRENTE PARA LA VICTORIA,FRENTE PARA LA VICTORIA - PJ,anabel.fernandezsagasti@senado.gob.ar,1060 -1069 - 8905/06,,@afernandezk,,,A Favor,,A Favor,https://losandes.com.ar/article/view?slug=la-mitad-de-los-diputados-mendocinos-dice-que-votara-en-contra-del-aborto-legal,,,2015-12-10,2021-12-09,,0,SI,SI,,
"FIAD, MARIO RAYMUNDO",V,38,61,Casado,Católica,"Dios, la Patria y los Ss. Ee.",,cambiemos,Jujuy,FRENTE JUJEÑO CAMBIEMOS,UNIÓN CÍVICA RADICAL,mario.fiad@senado.gob.ar,,https://www.facebook.com/MarioFiad/,@MarioFiad,https://www.instagram.com/mariofiad/,https://www.youtube.com/user/MarioFiadJujuy,En Contra,Lo dijo en la sesion,En Contra,http://www.parlamentario.com/noticia-110868.html,,26/06/18,2017-12-10,2023-12-09,,3,SI,,,
"FIORE VIÑUALES, MARÍA CRISTINA DEL VALLE",M,66,44,Soltero,Católica,,,otros,Salta,FRENTE PARA LA VICTORIA,PARES,maria.fiorevinuales@senado.gob.ar,3568 - 3571,https://www.facebook.com/Cristina-Fiore-Vi%C3%B1uales-380477738689513/,@fiore_cristina,https://instagram.com/,https://youtube.com/,En Contra,,En Contra,https://twitter.com/fiore_cristina/status/1008723914518941701,,06/08/15,2013-12-10,2019-12-09,,0,,SI,,
"FUENTES, MARCELO JORGE",V,58,69,Separado,NO CONTESTA,,,fpv,Neuquén,FRENTE PARA LA VICTORIA,FRENTE PARA LA VICTORIA - PJ,marcelo.fuentes@senado.gob.ar,1467/69,https://www.facebook.com/Cristina-Fiore-Vi%C3%B1uales-380477738689513/,,https://instagram.com/,https://youtube.com/,A Favor,,A Favor,http://www.rionegro.com.ar/argentina/cristina-ahora-a-favor-del-debate-por-la-despenalizacion-del-aborto-HK4491867,,,2013-12-10,2019-12-09,,2,,,SI,SI
"GARCÍA LARRABURU, SILVINA MARCELA",M,62,49,En convivencia,Católica,,,fpv,Río Negro,FRENTE PARA LA VICTORIA,FRENTE PARA LA VICTORIA - PJ,silvina.garcialarraburu@senado.gob.ar,3588 - 3590,https://www.facebook.com/Silvina-García-Larraburu-147895613528/,https://www.facebook.com/silvinagarcialarraburu/,https://instagram.com/garcialarraburu/,https://youtube.com/channel/UCfsYLk17ffJTNto2_ScC7jQ,En Contra,https://twitter.com/adn790/status/1026088046461108224,En Contra,https://twitter.com/SenadoresFPVPJ/status/1007311562774900736,,,2013-12-10,2019-12-09,,1,SI,,,
"GIACOPPO, SILVIA DEL ROSARIO",M,38,58,Casado,Católica,"Dios, la Patria y los Ss. Ee.",,cambiemos,Jujuy,FRENTE JUJEÑO CAMBIEMOS,UNIÓN CÍVICA RADICAL,silvia.giacoppo@senado.gob.ar,1230 - 8855 - 8718,https://www.facebook.com/SilviaGiacoppoUCR,@giacopposilvia,,,En Contra,,En Contra,https://www.jujuyonlinenoticias.com.ar/jujuy/2018/3/27/aborto-giacoppo-pronuncio-contra-pero-favor-profundizar-educacion-sexual-50391.html,"Sin embargo, este año se pronunció en contra ""No estoy a favor de la ley así como está. Yo veo sano que se abra el debate pero estoy a favor de la vida en todos los estadios, por lo tanto, desde el hecho de la concepción hay vida. Es mi postura personal y voy a trabajar en el Congreso en consecuencia de ello”.",27/03/18,2017-12-10,2023-12-09,,3,,,,
"GONZALEZ, GLADYS ESTHER",M,06,45,Casado,NO CONTESTA,,,cambiemos,Buenos Aires,CAMBIEMOS BUENOS AIRES,FRENTE PRO,gladys.gonzalez@senado.gob.ar,,https://www.facebook.com/SilviaGiacoppoUCR,@gladys_gonzalez,,,A Favor,,A Favor,https://twitter.com/gladys_gonzalez/status/1013874445566529536,Propone cambios pero si no los aceptan vota igual a favor,,2017-12-27,2023-12-09,,3,,,,
"GONZÁLEZ, MARÍA TERESA MARGARITA",M,34,44,En convivencia,Católica,"Dios, la Patria y los Ss. Ee.",,pj,Formosa,FRENTE DE LA VICTORIA,JUSTICIALISTA,maria.gonzalez@senado.gob.ar,3150,https://www.facebook.com/SilviaGiacoppoUCR,,,,En Contra,,En Contra,https://www.telam.com.ar/notas/201806/290652-la-despenalizacion-del-aborto-divide-a-la-mujeres-en-el-senado.html,,18/06/18,2017-12-10,2023-12-09,,0,,,,
"GONZÁLEZ, NANCY SUSANA",M,26,57,No contesta,NO CONTESTA,La Patria,,fpv,Chubut,ALIANZA FRENTE PARA LA VICTORIA,FRENTE PARA LA VICTORIA - PJ,nancy.gonzalez@senado.gob.ar,3302 - 3379 -3390,,@nancysgonzalez,,,A Favor,,A Favor,https://twitter.com/nancysgonzalez/status/971102136187703296,"Senador Fuentes sugirió ""posición muy uniforme"" de su bloque.",,2015-12-10,2021-12-09,,2,SI,,,
"GUASTAVINO, PEDRO GUILLERMO ÁNGEL",V,30,64,Casado,Católica,,,pj,Entre Ríos,FRENTE PARA LA VICTORIA,JUSTICIALISTA,pedro.guastavino@senado.gob.ar,1440 - 1444,https://www.facebook.com/pemoGuastavino,@pemoguastavino,https://instagram.com/pemoguastavino,https://youtube.com/channel/UCRYfEY8gdNLQT-MEduBfJnw,A Favor,Lo dijo en la sesion,A Favor,http://www.eldiaonline.com/guastavino-adelanto-que-votara-a-favor-de-la-despenalizacion-el-aborto/,,,2013-12-10,2019-12-09,,3,,SI,SI,SI
"IANNI, ANA MARIA",M,78,48,Casado,Católica,"Dios, la Patria y los Ss. Ee.","por el honor de Santa Cruz, el Calafate y mi familia",fpv,Santa Cruz,FRENTE PARA LA VICTORIA,FRENTE PARA LA VICTORIA - PJ,ana.ianni@senado.gob.ar,,https://www.facebook.com/pemoGuastavino,@AnaMariaIanni,https://instagram.com/pemoguastavino,https://youtube.com/channel/UCRYfEY8gdNLQT-MEduBfJnw,A Favor,,A Favor,https://twitter.com/SenadoresFPVPJ/status/1007311562774900736,,,2017-12-10,2023-12-09,,3,,,,
"ITÚRREZ DE CAPPELLINI, ADA ROSA DEL VALLE",M,86,71,Casado,Católica,,,otros,Santiago del Estero,FRENTE CÍVICO POR SANTIAGO,FRENTE CÍVICO POR SANTIAGO,ada.iturrez@senado.gob.ar,1350 -1353,https://www.facebook.com/pemoGuastavino,@adaiturrez,https://instagram.com/pemoguastavino,https://youtube.com/channel/UCRYfEY8gdNLQT-MEduBfJnw,En Contra,Lo dijo en la sesion,En Contra,https://elpaisdigital.com.ar/contenido/aborto-cul-ser-la-postura-de-los-senadores-de-santiago-del-estero/17348,,18/06/18,2013-12-10,2019-12-09,,3,SI,SI,,
"KUNATH, SIGRID ELISABETH",M,30,48,Soltero,Católica,,,pj,Entre Ríos,FRENTE PARA LA VICTORIA,JUSTICIALISTA,sigrid.kunath@senado.gob.ar,1314 - 1348 -1380,,@SigridKunath,,,A Favor,,A Favor,https://ahora.com.ar/despenalizacion-del-aborto-como-votaran-los-senadores-entrerrianos-n4151421,https://twitter.com/SigridKunath/status/1007232975908605952,,2013-12-10,2019-12-09,,0,SI,SI,,SI
"LOPEZ VALVERDE, CRISTINA DEL CARMEN",M,70,59,Casado,Católica,Dios y la Patria,,pj,San Juan,FRENTE TODOS,JUSTICIALISTA,cristina.lopez@senado.gob.ar,,,,,,En Contra,,En Contra,https://sanjuanhoy.com/noticia/14943/cristina-lopez-sobre-la-legalizacion-del-aborto-hoy-mi-postura-es-negativa,,,2017-12-10,2023-12-09,,2,,,,
"LOVERA, DANIEL ANÍBAL",V,42,53,Casado,Católica,Dios y la Patria,,pj,La Pampa,ALIANZA FRENTE P/VICTORIA (PERONISMO PAMPEANO),PARTIDO JUSTICIALISTA LA PAMPA,daniel.lovera@senado.gob.ar,1474/75/76/77 -1479,,@DanielLoveraLP,,,A Favor,,A Favor,http://www.parlamentario.com/noticia-110675.html,,,2015-12-10,2021-12-09,,S/D,SI,,,
"LUENZO, ALFREDO HÉCTOR",V,26,60,Casado,Atea,La Patria,su familia y su comunidad,pj,Chubut,CHUBUT SOMOS TODOS,CHUBUT SOMOS TODOS,alfredo.luenzo@senado.gob.ar,1282 - 1287,https://www.facebook.com/Senador-Alfredo-Luenzo-127058484332074/,@SenadorLuenzo,,,A Favor,,A Favor,https://twitter.com/SenadorLuenzo/status/1010275613041573889?s=09,,,2015-12-10,2021-12-09,,3,SI,,,
"MARINO, JUAN CARLOS",V,42,54,Casado,Católica,"Dios, la Patria y los Ss. Ee.",,cambiemos,La Pampa,ALIANZA CAMBIEMOS,UNIÓN CÍVICA RADICAL,juan.marino@senado.gob.ar,3536/37/38/39,https://www.facebook.com/marinojuancarlos,@Juancmarino,https://instagram.com/jc.marino,https://youtube.com/Marinovideos,En Contra,,En Contra,https://www.infobae.com/politica/2018/07/29/un-senador-del-oficialismo-adelanto-que-votara-en-contra-del-proyecto-de-legalizacion-del-aborto/,https://www.lanacion.com.ar/2157453-un-senador-radical-anuncia-que-votara-contra-la-legalizacion-del-aborto,,2015-12-10,2021-12-09,A Favor,2,,,,
"MARTÍNEZ, ERNESTO FÉLIX",V,14,61,Casado,Católica,"Dios, la Patria y los Ss. Ee.",,cambiemos,Córdoba,ALIANZA CAMBIEMOS,FRENTE PRO,ernesto.martinez@senado.gob.ar,1374 - 1376,https://www.facebook.com/marinojuancarlos,@Martinez_EF,https://instagram.com/jc.marino,https://youtube.com/Marinovideos,A Favor,Es impulsor de modificaciones,No confirmado,http://www.lavoz.com.ar/listas/aborto-la-postura-de-los-tres-senadores-por-cordoba#!?item=1,,15/06/18,2015-12-10,2021-12-09,,2,,SI,,SI
"MARTINEZ, JULIO CESAR",V,46,55,Casado,Católica,"Dios, la Patria y los Ss. Ee.",,cambiemos,La Rioja,CAMBIEMOS FUERZA CIVICA RIOJANA,UNIÓN CÍVICA RADICAL,julio.martinez@senado.gob.ar,,https://www.facebook.com/marinojuancarlos,@JulioMartinezLR,https://instagram.com/jc.marino,https://youtube.com/Marinovideos,En Contra,,En Contra,https://www.a24.com/actualidad/un-senador-por-la-rioja-que-estaba-indeciso-confirmo-que-votara-en-contra-de-la-legalizacion-del-aborto-07062018_r1AapNpfQ,,06/07/18,2017-12-10,2023-12-09,A Favor,3,,,SI,
"MAYANS, JOSÉ MIGUEL ÁNGEL",V,34,60,Casado,Católica,"Dios, la Patria y los Ss. Ee.",,pj,Formosa,FRENTE DE LA VICTORIA,JUSTICIALISTA,mayans@senado.gob.ar,1023 - 1036 - 1037 - 1039,https://www.facebook.com/marinojuancarlos,,https://instagram.com/jc.marino,https://youtube.com/Marinovideos,En Contra,,En Contra,https://www.pagina12.com.ar/diario/elpais/1-75520-2006-11-02.html,,,2017-12-10,2023-12-09,A Favor,3,,SI,SI,
"MENEM, CARLOS SAÚL",V,46,87,Divorciado,Católica,"Dios, la Patria y los Ss. Ee.",,pj,La Rioja,FRENTE JUSTICIALISTA RIOJANO,JUSTICIALISTA,carlos.menem@senado.gob.ar,1008 - 1009,https://www.facebook.com/marinojuancarlos,@CarlosMenem_LR,https://instagram.com/jc.marino,https://youtube.com/Marinovideos,En Contra,,En Contra,https://drive.google.com/file/d/1X-yL2Nz8_1lwzM3DM4ExU4syN5tB9-gs/view,,,2017-12-10,2023-12-09,Ausente,4,,,,
"MERA, DALMACIO",V,10,47,No contesta,NO CONTESTA,"Dios, la Patria y los Ss. Ee.",,pj,Catamarca,ALIANZA FRENTE PARA LA VICTORIA,JUSTICIALISTA,dalmacio.mera@senado.gob.ar,3440 - 3443 -3444,https://www.facebook.com/dalmaciomera,@dalmaciomera,https://instagram.com/dalmaciomera,https://youtube.com/dalmaciomera,En Contra,Lo dijo en la sesion,En Contra,https://radiocut.fm/audiocut/el-proyecto-que-salio-de-diputados-colisiona-con-la-vida-y-yo-estoy-a-favor-de-la-vida/,,,2015-12-10,2021-12-09,,S/D,,,,SI
"MIRKIN, BEATRIZ GRACIELA",M,90,62,Casado,NO CONTESTA,La Patria,"por mi provincia, la Patria, las amas de casa y mi honor",pj,Tucumán,ALIANZA FRENTE PARA LA VICTORIA,JUSTICIALISTA,beatriz.mirkin@senado.gob.ar,3471/72 - 3475,https://www.facebook.com/dalmaciomera,@BettyMirkin,https://instagram.com/dalmaciomera,https://youtube.com/dalmaciomera,A Favor,,A Favor,https://twitter.com/BettyMirkin/status/1003662737812197376,,,2015-12-10,2021-12-09,,3,,,SI,
"MONTENEGRO, GERARDO ANTENOR",V,86,57,Casado,Católica,,,otros,Santiago del Estero,FRENTE POPULAR,FRENTE POPULAR,gerardo.montenegro@senado.gob.ar,3504 - 3512 - 3521 - 3526,https://www.facebook.com/dalmaciomera,https://www.facebook.com/gerardo.montenegro.969,https://instagram.com/dalmaciomera,https://youtube.com/dalmaciomera,En Contra,,En Contra,https://elpaisdigital.com.ar/contenido/aborto-cul-ser-la-postura-de-los-senadores-de-santiago-del-estero/17348,,,2013-12-10,2019-12-09,,S/D,SI,,,
"ODARDA, MARÍA MAGDALENA",M,62,52,Divorciado,Católica,,,otros,Río Negro,ALIANZA FRENTE PROGRESISTA,RIO - FRENTE PROGRESISTA,maria.odarda@senado.gob.ar,3556/57/58/59,https://www.facebook.com/magdalenaodardaoficial,@MagdalenaOdarda ,,,A Favor,,A Favor,https://www.lmcipolletti.com/los-senadores-rionegrinos-acompanaran-forma-unanime-el-aborto-legal-n595318,,,2013-12-10,2019-12-09,,2,,SI,,
"OJEDA, JOSÉ ANATOLIO",V,94,54,Casado,Católica,La Patria,,pj,Tierra del Fuego,ALIANZA FRENTE PARA LA VICTORIA,JUSTICIALISTA,jose.ojeda@senado.gob.ar,1487/88 - 1511/12/13,https://www.facebook.com/magdalenaodardaoficial,@nato_ojeda,,,A Favor,Lo dijo en la sesion,A Favor,https://twitter.com/estipozzo/status/1001456592414535680,,,2015-12-10,2019-12-09,,4,,,SI,
"PAIS, JUAN MARIO",V,26,62,Casado,Católica,"Dios, la Patria y los Ss. Ee.",,pj,Chubut,ALIANZA FRENTE PARA LA VICTORIA,JUSTICIALISTA CHUBUT,juan.pais@senado.gob.ar,1370/71/72,https://www.facebook.com/Juan-Mario-Pais-1637635439805075/,@juanmariopais,,,A Favor,,A Favor,http://radiocaput.com/2018/03/06/pais-estoy-a-favor-de-la-interrupcion-regulada-legalmente-del-embarazo/,,,2015-12-10,2021-12-09,,4,,SI,,SI
"PEREYRA, GUILLERMO JUAN",V,58,74,Divorciado,NO CONTESTA,,,otros,Neuquén,MOVIMIENTO POPULAR NEUQUINO,MOVIMIENTO POPULAR NEUQUINO,guillermo.pereyra@senado.gob.ar,1490/95,,@SenadorPereyra,,,A Favor,https://www.urgente24.com/279413-patagonia-a-favor-neuquen-y-rio-negro-no-aportaran-ni-1-voto-en-contra,No confirmado,https://www.rionegro.com.ar/region/aborto-legal-buscan-el-respaldo-del-senador-pereyra-CC5242172,https://www.lmneuquen.com/aborto-pereyra-se-reunio-organizaciones-definir-su-voto-n596000,19/06 y 20/06/18,2013-12-10,2019-12-09,,3,SI,,,
"PEROTTI, OMAR ÁNGEL",V,82,58,Casado,Católica,"Dios, la Patria y los Ss. Ee.",,pj,Santa Fe,ALIANZA FRENTE PARA LA VICTORIA,JUSTICIALISTA,omar.perotti@senado.gob.ar,1210 - 1213 - 5846,https://www.facebook.com/omarperotti,@omarperotti,,,Se Abstiene,Exposición en el Congreso,Se Abstiene,https://www.pagina12.com.ar/99297-apoyos-y-condenas,Exposición en el Congreso,08/08/18,2015-12-10,2021-12-09,,3,,,,
"PETCOFF NAIDENOFF, LUIS CARLOS",V,34,50,Casado,Católica,"Dios, la Patria y los Ss. Ee.",,cambiemos,Formosa,FRENTE AMPLIO FORMOSEÑO CAMBIEMOS,UNIÓN CÍVICA RADICAL,luis.petcoffnaidenoff@senado.gob.ar,3543/46,,@luisnaidenoff,,,A Favor,,A Favor,https://www.pagina12.com.ar/121587-el-turno-del-senado,,,2017-12-10,2023-12-09,A Favor,2,,,,SI
"PICHETTO, MIGUEL ÁNGEL",V,62,67,Casado,NO CONTESTA,,,pj,Río Negro,FRENTE PARA LA VICTORIA,JUSTICIALISTA,pichetto@senado.gob.ar,1276 - 1278; 8744/5,,https://www.facebook.com/pichetto/,,,A Favor,,A Favor,https://twitter.com/radioconvos899/status/999764053701615616,http://www.agenciapacourondo.com.ar/generos/cfk-y-pichetto-favor-luz-verde-para-el-aborto-en-el-senado,,2013-12-10,2019-12-09,A Favor,2,,,,
"PILATTI VERGARA, MARÍA INÉS",M,22,60,Casado,Católica,,,fpv,Chaco,FRENTE PARA LA VICTORIA,FRENTE PARA LA VICTORIA - PJ,maria.pilattivergara@senado.gob.ar,3422 - 3424/25 - 5589,,@pilattivergara,,,A Favor,,A Favor,https://radiocut.fm/audiocut/aborto-la-senadora-chaquena-maria-ines-pilatti-se-manifesto-a-favor-de-la-legalizacion-del-aborto/,,,2013-12-10,2019-12-09,,2,,,,
"PINEDO, FEDERICO",V,02,62,Divorciado,Católica,"Dios, la Patria y los Ss. Ee.",,cambiemos,Ciudad Autónoma de Buenos Aires,ALIANZA UNIÓN PRO,FRENTE PRO,federico.pinedo@senado.gob.ar,1084 - 1098,https://www.facebook.com/federicopinedo,@PinedoFederico,https://instagram.com/pinedo.federico/,https://youtube.com/user/ProPinedo,En Contra,,En Contra,https://www.baenegocios.com/deportes/Pinedo-La-mayoria-de-los-senadores-votaria-en-contra-del-aborto-inclusive-Cristina-Fernandez-20180224-0007.html,,,2015-12-10,2019-12-09,En Contra,3,SI,SI,,
"POGGI, CLAUDIO JAVIER",V,74,54,Casado,Católica,"Dios, la Patria y los Ss. Ee.",,cambiemos,San Luis,AVANZAR Y CAMBIEMOS POR SAN LUIS,AVANZAR SAN LUIS,claudio.poggi@senado.gob.ar,,https://www.facebook.com/claudio.javier.poggi,@claudiojpoggi,https://www.instagram.com/claudiojpoggi,,En Contra,,En Contra,www.periodistasenlared.info/abril12-23/nota4.html,,,2017-12-10,2023-12-09,Ausente,2,,,SI,
"PORCEL DE RICCOBELLI, BLANCA",M,86,75,Viuda,Católica,,,otros,Santiago del Estero,ALIANZA FRENTE CÍVICO,FRENTE CÍVICO POR SANTIAGO,blanca.porcel@senado.gob.ar,,https://www.facebook.com/claudio.javier.poggi,,https://www.instagram.com/claudiojpoggi,,En Contra,,En Contra,https://elpaisdigital.com.ar/contenido/aborto-cul-ser-la-postura-de-los-senadores-de-santiago-del-estero/17348,,,2017-12-10,2019-12-09,,2,,,,
"REUTEMANN, CARLOS ALBERTO",V,82,75,Casado,Católica,"Dios, la Patria y los Ss. Ee.",,otros,Santa Fe,ALIANZA CAMBIEMOS,SANTA FE FEDERAL,reuteman@senado.gob.ar,1422/26,,@ReutemannC,,,En Contra,,En Contra,https://www.infobae.com/politica/2018/07/30/aborto-carlos-reutemann-confirmo-que-estara-en-la-sesion-y-anticipo-que-votara-en-contra/,,,2015-12-10,2021-12-09,A Favor,2,,,,
"RODRÍGUEZ MACHADO, LAURA ELENA",M,14,52,Divorciado,Católica,"Dios, la Patria y los Ss. Ee.",,cambiemos,Córdoba,ALIANZA CAMBIEMOS,FRENTE PRO,laura.rodriguezmachado@senado.gob.ar,3290/91,,@laurmachado,,,A Favor,Impulsa las modificaciones,No confirmado,http://www.lavoz.com.ar/listas/aborto-la-postura-de-los-tres-senadores-por-cordoba#!?item=1,,15/06/18,2015-12-10,2021-12-09,,1,,,SI,SI
"RODRÍGUEZ SAÁ, ADOLFO",V,74,70,Divorciado,Católica,"Dios, la Patria y los Ss. Ee.",,otros,San Luis,FRENTE UNIDAD JUSTICIALISTA SAN LUIS,UNIDAD JUSTICIALISTA,adolfo.rodriguezsaa@senado.gob.ar,1501 - 1503,,@Adolfo_RSaa,,,En Contra,,En Contra,http://www.elcorredornoticias.com/noticias/2018/03/17/4093-adolfo-rodriguez-saa--vamos-a-votar-a-favor-de-la-vida,,,2017-12-10,2023-12-09,A Favor,6,,,,SI
"ROMERO, JUAN CARLOS",V,66,67,Casado,Católica,,,otros,Salta,FRENTE POPULAR SALTEÑO,JUSTICIALISTA 8 DE OCTUBRE,juan.romero@senado.gob.ar,5673 - 5675,https://www.facebook.com/romeroxsalta,@romeroxsalta,,,En Contra,https://twitter.com/RomeroxSalta/status/1025147515660890112?s=20,En Contra,https://twitter.com/RomeroxSalta/status/1025147515660890112?s=20,,25/02/18,2013-12-10,2019-12-09,,4,,,SI,SI
"ROZAS, ÁNGEL",V,22,67,Casado,Católica,,,cambiemos,Chaco,UNIÓN POR CHACO,UNIÓN CÍVICA RADICAL,angel.rozas@senado.gob.ar,3522/25,,@angelrozaschaco,,,En Contra,,En Contra,https://www.clarin.com/politica/senador-clave-oficialismo-vota-aborto-estira-ventaja_0_rklm5y0E7.html,,,2013-12-10,2019-12-09,Ausente,3,,,SI,SI
"SACNUN, MARÍA DE LOS ÁNGELES",M,82,47,Divorciado,Católica,"Dios, la Patria y los Ss. Ee.","Por la memoria de mis padres, por Perón, Evita, Néstor y la vida de los compañeros que dejaron todo en pos de la causa de la liberación nacional",fpv,Santa Fe,ALIANZA FRENTE PARA LA VICTORIA,FRENTE PARA LA VICTORIA - PJ,maria.sacnun@senado.gob.ar,3562 - 3564 -3565,,@sacnun,,,A Favor,,A Favor,http://radiocaput.com/2018/03/02/la-senadora-sacnun-se-pronuncio-a-favor-de-la-legalizacion-del-aborto/,,,2015-12-10,2021-12-09,,1,,SI,,
"SCHIAVONI, HUMBERTO LUIS ARTURO",V,54,59,Separado,Atea,La Patria,,cambiemos,Misiones,FRENTE CAMBIEMOS,FRENTE PRO,humberto.schiavoni@senado.gob.ar,,,@SchiavoniH,,,A Favor,,A Favor,https://www.pagina12.com.ar/123225-otra-luz-verde-en-el-senado,,,2017-12-10,2023-12-09,,2,,,,
"SNOPEK, GUILLERMO EUGENIO MARIO",V,38,42,Casado,Católica,"Dios, la Patria y los Ss. Ee.",,pj,Jujuy,FRENTE JUSTICIALISTA,JUSTICIALISTA,guillermo.snopek@senado.gob.ar,,,@guillermosnopek,,,En Contra,,En Contra,https://www.ncn.com.ar/snopek-sobre-el-debate-del-aborto-me-voy-a-oponer-ferreamente-a-cualquier-proyecto-pro-abortista/,,,2017-12-10,2023-12-09,,S/D,,SI,SI,SI
"SOLANAS, FERNANDO EZEQUIEL",V,02,82,Casado,Católica,Dios y la Patria,,otros,Ciudad Autónoma de Buenos Aires,ALIANZA UNEN,PROYECTO SUR-UNEN,fernando.solanas@senado.gob.ar,1384/86 - 1389/90,,@fernandosolanas,,,A Favor,,A Favor,http://www.abortolegal.com.ar/proyecto-de-ley-presentado-por-la-campana/,,,2013-12-10,2019-12-09,,3,,,,
"SOLARI QUINTANA, MAGDALENA",M,54,50,Divorciado,Agnóstica,La Patria,,otros,Misiones,FRENTE RENOVADOR DE LA CONCORDIA,MISIONES,magdalena.solari@senado.gob.ar,,,@MaggieSolariQ,,,En Contra,,En Contra,https://www.a24.com/politica/legalizacion-del-aborto-dia-por-dia-minuto-a-minuto-como-esta-el-poroteo-de-votos-en-el-senado-07312018_BkZ3o4tMQ,,16/06/18,2017-12-10,2023-12-09,,0,,,,SI
"TAPIA, MARIA BELEN",M,78,44,Casado,Católica,"Dios, la Patria y los Ss. Ee.",,cambiemos,Santa Cruz,UNION PARA VIVIR MEJOR CAMBIEMOS,UNIÓN CÍVICA RADICAL,maria.tapia@senado.gob.ar,,,@MariabTapia,,,En Contra,,En Contra,https://www.a24.com/politica/legalizacion-del-aborto-dia-por-dia-minuto-a-minuto-como-esta-el-poroteo-de-votos-en-el-senado-07312018_BkZ3o4tMQ,,18/06/18,2017-12-10,2023-12-09,,2,,,,
"UÑAC, JOSE RUBEN",V,70,54,No contesta,NO CONTESTA,"Dios, la Patria y los Ss. Ee.",,pj,San Juan,FRENTE TODOS,JUSTICIALISTA,jose.unac@senado.gob.ar,,,https://www.facebook.com/ruben.unac/,,,En Contra,,En Contra,https://www.tiempodesanjuan.com/politica/2014/11/5/que-opinan-diputados-sanjuaninos-sobre-aborto-punible-69227.html,,,2017-12-10,2023-12-09,A Favor,2,,,,SI
"URTUBEY, RODOLFO JULIO",V,66,58,Separado,Católica,,,pj,Salta,FRENTE PARA LA VICTORIA,JUSTICIALISTA,rodolfo.urtubey@senado.gov.ar,1410/11,,@tolourtubey,,,En Contra,,En Contra,http://informatesalta.com.ar/noticia/157220/proyecto-del-aborto-yo-votaria-por-la-negativa-si-se-mantienen-como-esta,,,2013-12-10,2019-12-09,,3,,SI,SI,SI
"VARELA, MARTA",M,02,67,Casado,Católica,,,cambiemos,Ciudad Autónoma de Buenos Aires,ALIANZA UNIÓN PRO,FRENTE PRO,marta.varela@senado.gob.ar,3456 - 3457/58,https://www.facebook.com/MartaVarela15/,@MLVarela,,,En Contra,,En Contra,https://twitter.com/MLVarela/status/1005515002802065408,,,2016-02-11,2019-12-09,,3,,,,
"VERASAY, PAMELA FERNANDA",M,50,37,Soltero,NO CONTESTA,La Patria,,cambiemos,Mendoza,ALIANZA CAMBIEMOS,UNIÓN CÍVICA RADICAL,pamela.verasay@senado.gob.ar,3500 - 3502,https://www.facebook.com/PamelaVerasayUCR/,@PameVerasay,https://instagram.com/pamela.verasay/,https://youtube.com/,A Favor,,A Favor,https://losandes.com.ar/article/view?slug=la-mitad-de-los-diputados-mendocinos-dice-que-votara-en-contra-del-aborto-legal,,,2015-12-10,2021-12-09,,0,SI,,,
"MICHETTI, MARTA GABRIELA",M,,,,,,,,VICEPRESIDENTE DE LA NACIÓN,,,,,,@gabimichetti,,,Se Abstiene,,Se Abstiene,https://www.infobae.com/politica/2018/06/06/gabriela-michetti-organiza-una-foto-que-reuna-a-los-oficialistas-que-estan-en-contra-del-aborto-legal/,"""Si una votación se empata se abrirá una nueva discusión, se repetirá en seguida la votación, y si ésta vuelve a resultar empatada, decide el voto de la presidenta"".",,,,,,,,,
