﻿diputado_id,Diputado,Provincia,Partido,Orientación,Voto,ley_id,Nombre Ley,Fecha,Acta votación,Texto Ley
853,"Monzó., Emilio",BUENOS AIRES,PRO,Cambiemos,,1708,Legalización del aborto,14/06/2018,https://votaciones.hcdn.gob.ar/3805.pdf,
1307,"Vigo,  Alejandra María",CÓRDOBA,CÓRDOBA FEDERAL,PJ ,ABSTENCION,1708,Legalización del aborto,14/06/2018,https://votaciones.hcdn.gob.ar/3805.pdf,
1279,"Najul,  Claudia Inés",MENDOZA,UNIÓN CÍVICA RADICAL,Cambiemos,AFIRMATIVO,1708,Legalización del aborto,14/06/2018,https://votaciones.hcdn.gob.ar/3805.pdf,
797,"Masín., María Lucila",CHACO,FRENTE PARA LA VICTORIA,Kirchnerismo y aliados,AFIRMATIVO,1708,Legalización del aborto,14/06/2018,https://votaciones.hcdn.gob.ar/3805.pdf,
878,"Martínez., Silvia Alejandra",JUJUY,UNIÓN CÍVICA RADICAL,Cambiemos,AFIRMATIVO,1708,Legalización del aborto,14/06/2018,https://votaciones.hcdn.gob.ar/3805.pdf,
1267,"Martínez,  Darío",NEUQUÉN,FRENTE PARA LA VICTORIA,Kirchnerismo y aliados,AFIRMATIVO,1708,Legalización del aborto,14/06/2018,https://votaciones.hcdn.gob.ar/3805.pdf,
876,"Marcucci., Hugo María",SANTA FE,UNIÓN CÍVICA RADICAL,Cambiemos,AFIRMATIVO,1708,Legalización del aborto,14/06/2018,https://votaciones.hcdn.gob.ar/3805.pdf,
1265,"Macha,  Mónica",BUENOS AIRES,FRENTE PARA LA VICTORIA,Kirchnerismo y aliados,AFIRMATIVO,1708,Legalización del aborto,14/06/2018,https://votaciones.hcdn.gob.ar/3805.pdf,
590,"Lousteau,  Martín",CDAD. AUT. BS. AS.,EVOLUCIÓN RADICAL,Otros,AFIRMATIVO,1708,Legalización del aborto,14/06/2018,https://votaciones.hcdn.gob.ar/3805.pdf,
848,"Lospennato., Silvia",BUENOS AIRES,PRO,Cambiemos,AFIRMATIVO,1708,Legalización del aborto,14/06/2018,https://votaciones.hcdn.gob.ar/3805.pdf,
1264,"López,  Juan Manuel",C.A.B.A.,COALICIÓN CÍVICA,Cambiemos,AFIRMATIVO,1708,Legalización del aborto,14/06/2018,https://votaciones.hcdn.gob.ar/3805.pdf,
1268,"Matzen,  Lorena",RIO NEGRO,UNIÓN CÍVICA RADICAL,Cambiemos,AFIRMATIVO,1708,Legalización del aborto,14/06/2018,https://votaciones.hcdn.gob.ar/3805.pdf,
1271,"Mendoza,  Josefina",BUENOS AIRES,UNIÓN CÍVICA RADICAL,Cambiemos,AFIRMATIVO,1708,Legalización del aborto,14/06/2018,https://votaciones.hcdn.gob.ar/3805.pdf,
687,"Moyano,  Facundo",BUENOS AIRES,FEDERAL UNIDOS POR UNA NUEVA ARGENTINA,Massismo y aliados,AFIRMATIVO,1708,Legalización del aborto,14/06/2018,https://votaciones.hcdn.gob.ar/3805.pdf,
1276,"Moreau,  Leopoldo Raúl Guido",BUENOS AIRES,FRENTE PARA LA VICTORIA,Kirchnerismo y aliados,AFIRMATIVO,1708,Legalización del aborto,14/06/2018,https://votaciones.hcdn.gob.ar/3805.pdf,
826,"Moreau., Cecilia",BUENOS AIRES,FEDERAL UNIDOS POR UNA NUEVA ARGENTINA,Massismo y aliados,AFIRMATIVO,1708,Legalización del aborto,14/06/2018,https://votaciones.hcdn.gob.ar/3805.pdf,
382,"Moises,  María Carolina",JUJUY,JUSTICIALISTA,Massismo y aliados,AFIRMATIVO,1708,Legalización del aborto,14/06/2018,https://votaciones.hcdn.gob.ar/3805.pdf,
799,"Miranda., Pedro Rubén",MENDOZA,JUSTICIALISTA,PJ ,AFIRMATIVO,1708,Legalización del aborto,14/06/2018,https://votaciones.hcdn.gob.ar/3805.pdf,
798,"Mercado., Verónica",CATAMARCA,FRENTE PARA LA VICTORIA,Kirchnerismo y aliados,AFIRMATIVO,1708,Legalización del aborto,14/06/2018,https://votaciones.hcdn.gob.ar/3805.pdf,
1272,"Menna,  Gustavo",CHUBUT,UNIÓN CÍVICA RADICAL,Cambiemos,AFIRMATIVO,1708,Legalización del aborto,14/06/2018,https://votaciones.hcdn.gob.ar/3805.pdf,
371,"Mendoza,  Mayra Soledad",BUENOS AIRES,FRENTE PARA LA VICTORIA,Kirchnerismo y aliados,AFIRMATIVO,1708,Legalización del aborto,14/06/2018,https://votaciones.hcdn.gob.ar/3805.pdf,
849,"López Koenig., Leandro",NEUQUÉN,PRO,Cambiemos,AFIRMATIVO,1708,Legalización del aborto,14/06/2018,https://votaciones.hcdn.gob.ar/3805.pdf,
847,"Lipovetzky., Daniel",BUENOS AIRES,PRO,Cambiemos,AFIRMATIVO,1708,Legalización del aborto,14/06/2018,https://votaciones.hcdn.gob.ar/3805.pdf,
789,"Guerín., María Isabel",BUENOS AIRES,FRENTE PARA LA VICTORIA,Kirchnerismo y aliados,AFIRMATIVO,1708,Legalización del aborto,14/06/2018,https://votaciones.hcdn.gob.ar/3805.pdf,
274,"Grosso.,  Leonardo",BUENOS AIRES,PERONISMO PARA LA VICTORIA,PJ ,AFIRMATIVO,1708,Legalización del aborto,14/06/2018,https://votaciones.hcdn.gob.ar/3805.pdf,
788,"Grana., Adrián",BUENOS AIRES,FRENTE PARA LA VICTORIA,Kirchnerismo y aliados,AFIRMATIVO,1708,Legalización del aborto,14/06/2018,https://votaciones.hcdn.gob.ar/3805.pdf,
653,"González,  Josefina Victoria",SANTA FE,FRENTE PARA LA VICTORIA,Kirchnerismo y aliados,AFIRMATIVO,1708,Legalización del aborto,14/06/2018,https://votaciones.hcdn.gob.ar/3805.pdf,
1207,"Gonzáles Seligra,  Nathalia",BUENOS AIRES,PTS - FRENTE DE IZQUIERDA,Izquierda,AFIRMATIVO,1708,Legalización del aborto,14/06/2018,https://votaciones.hcdn.gob.ar/3805.pdf,
843,"Gayol., Yanina Celeste",ENTRE RÍOS,PRO,Cambiemos,AFIRMATIVO,1708,Legalización del aborto,14/06/2018,https://votaciones.hcdn.gob.ar/3805.pdf,
787,"Garré., Nilda",CDAD. AUT. BS. AS.,FRENTE PARA LA VICTORIA,Kirchnerismo y aliados,AFIRMATIVO,1708,Legalización del aborto,14/06/2018,https://votaciones.hcdn.gob.ar/3805.pdf,
1255,"Garcia,  Alejandro",C.A.B.A.,PRO,Cambiemos,AFIRMATIVO,1708,Legalización del aborto,14/06/2018,https://votaciones.hcdn.gob.ar/3805.pdf,
769,"Herrera., Luis Beder",LA RIOJA,JUSTICIALISTA,PJ ,AFIRMATIVO,1708,Legalización del aborto,14/06/2018,https://votaciones.hcdn.gob.ar/3805.pdf,
840,"Hers Cabral., Anabella Ruth",CDAD. AUT. BS. AS.,PRO,Cambiemos,AFIRMATIVO,1708,Legalización del aborto,14/06/2018,https://votaciones.hcdn.gob.ar/3805.pdf,
790,"Horne., Silvia Reneé",RIO NEGRO,PERONISMO PARA LA VICTORIA,PJ ,AFIRMATIVO,1708,Legalización del aborto,14/06/2018,https://votaciones.hcdn.gob.ar/3805.pdf,
316,"Larroque,  Andrés",CDAD. AUT. BS. AS.,FRENTE PARA LA VICTORIA,Kirchnerismo y aliados,AFIRMATIVO,1708,Legalización del aborto,14/06/2018,https://votaciones.hcdn.gob.ar/3805.pdf,
1260,"Lacoste,  Jorge Enrique",ENTRE RÍOS,UNIÓN CÍVICA RADICAL,Cambiemos,AFIRMATIVO,1708,Legalización del aborto,14/06/2018,https://votaciones.hcdn.gob.ar/3805.pdf,
311,"Kroneberger,  Daniel Ricardo",LA PAMPA,UNIÓN CÍVICA RADICAL,Cambiemos,AFIRMATIVO,1708,Legalización del aborto,14/06/2018,https://votaciones.hcdn.gob.ar/3805.pdf,
794,"Kirchner., Máximo",SANTA CRUZ,FRENTE PARA LA VICTORIA,Kirchnerismo y aliados,AFIRMATIVO,1708,Legalización del aborto,14/06/2018,https://votaciones.hcdn.gob.ar/3805.pdf,
793,"Kicillof., Axel",CDAD. AUT. BS. AS.,FRENTE PARA LA VICTORIA,Kirchnerismo y aliados,AFIRMATIVO,1708,Legalización del aborto,14/06/2018,https://votaciones.hcdn.gob.ar/3805.pdf,
792,"Igon., Santiago",CHUBUT,FRENTE PARA LA VICTORIA,Kirchnerismo y aliados,AFIRMATIVO,1708,Legalización del aborto,14/06/2018,https://votaciones.hcdn.gob.ar/3805.pdf,
293,"Iglesias,  Fernando Adolfo",CDAD. AUT. BS. AS.,PRO,Cambiemos,AFIRMATIVO,1708,Legalización del aborto,14/06/2018,https://votaciones.hcdn.gob.ar/3805.pdf,
791,"Huss., Juan Manuel",ENTRE RÍOS,FRENTE PARA LA VICTORIA,Kirchnerismo y aliados,AFIRMATIVO,1708,Legalización del aborto,14/06/2018,https://votaciones.hcdn.gob.ar/3805.pdf,
786,"Furlán., Francisco",BUENOS AIRES,FRENTE PARA LA VICTORIA,Kirchnerismo y aliados,AFIRMATIVO,1708,Legalización del aborto,14/06/2018,https://votaciones.hcdn.gob.ar/3805.pdf,
405,"Negri,  Mario Raúl",CÓRDOBA,UNIÓN CÍVICA RADICAL,Cambiemos,AFIRMATIVO,1708,Legalización del aborto,14/06/2018,https://votaciones.hcdn.gob.ar/3805.pdf,
813,"Ziliotto., Sergio Raúl",LA PAMPA,JUSTICIALISTA,PJ ,AFIRMATIVO,1708,Legalización del aborto,14/06/2018,https://votaciones.hcdn.gob.ar/3805.pdf,
811,"Tailhade., Luis Rodolfo",BUENOS AIRES,FRENTE PARA LA VICTORIA,Kirchnerismo y aliados,AFIRMATIVO,1708,Legalización del aborto,14/06/2018,https://votaciones.hcdn.gob.ar/3805.pdf,
1303,"Suarez Lastra,  Facundo",C.A.B.A.,UNIÓN CÍVICA RADICAL,Cambiemos,AFIRMATIVO,1708,Legalización del aborto,14/06/2018,https://votaciones.hcdn.gob.ar/3805.pdf,
1302,"Stefani,  Héctor Antonio",TIERRA DEL FUEGO,PRO,Cambiemos,AFIRMATIVO,1708,Legalización del aborto,14/06/2018,https://votaciones.hcdn.gob.ar/3805.pdf,
647,"Soria,  María Emilia",RIO NEGRO,FRENTE PARA LA VICTORIA,Kirchnerismo y aliados,AFIRMATIVO,1708,Legalización del aborto,14/06/2018,https://votaciones.hcdn.gob.ar/3805.pdf,
672,"Solá,  Felipe",BUENOS AIRES,FEDERAL UNIDOS POR UNA NUEVA ARGENTINA,Massismo y aliados,AFIRMATIVO,1708,Legalización del aborto,14/06/2018,https://votaciones.hcdn.gob.ar/3805.pdf,
1301,"Siley,  Vanesa",BUENOS AIRES,FRENTE PARA LA VICTORIA,Kirchnerismo y aliados,AFIRMATIVO,1708,Legalización del aborto,14/06/2018,https://votaciones.hcdn.gob.ar/3805.pdf,
1300,"Sierra,  Magdalena",BUENOS AIRES,FRENTE PARA LA VICTORIA,Kirchnerismo y aliados,AFIRMATIVO,1708,Legalización del aborto,14/06/2018,https://votaciones.hcdn.gob.ar/3805.pdf,
1299,"Scioli,  Daniel",BUENOS AIRES,FRENTE PARA LA VICTORIA,Kirchnerismo y aliados,AFIRMATIVO,1708,Legalización del aborto,14/06/2018,https://votaciones.hcdn.gob.ar/3805.pdf,
738,"Tundis,  Mirta",BUENOS AIRES,FEDERAL UNIDOS POR UNA NUEVA ARGENTINA,Massismo y aliados,AFIRMATIVO,1708,Legalización del aborto,14/06/2018,https://votaciones.hcdn.gob.ar/3805.pdf,
1304,"Vallejos,  María Fernanda",BUENOS AIRES,FRENTE PARA LA VICTORIA,Kirchnerismo y aliados,AFIRMATIVO,1708,Legalización del aborto,14/06/2018,https://votaciones.hcdn.gob.ar/3805.pdf,
1306,"Vazquez,  Juan Benedicto",SANTA CRUZ,FRENTE PARA LA VICTORIA,Kirchnerismo y aliados,AFIRMATIVO,1708,Legalización del aborto,14/06/2018,https://votaciones.hcdn.gob.ar/3805.pdf,
1311,"Yedlin,  Pablo Raúl",TUCUMÁN,JUSTICIALISTA POR TUCUMÁN,PJ ,AFIRMATIVO,1708,Legalización del aborto,14/06/2018,https://votaciones.hcdn.gob.ar/3805.pdf,
1310,"Yasky,  Hugo",BUENOS AIRES,FRENTE PARA LA VICTORIA,Kirchnerismo y aliados,AFIRMATIVO,1708,Legalización del aborto,14/06/2018,https://votaciones.hcdn.gob.ar/3805.pdf,
863,"Wolff., Waldo Ezequiel",BUENOS AIRES,PRO,Cambiemos,AFIRMATIVO,1708,Legalización del aborto,14/06/2018,https://votaciones.hcdn.gob.ar/3805.pdf,
862,"Wisky., Sergio Javier",RIO NEGRO,PRO,Cambiemos,AFIRMATIVO,1708,Legalización del aborto,14/06/2018,https://votaciones.hcdn.gob.ar/3805.pdf,
861,"Wechsler., Marcelo",CDAD. AUT. BS. AS.,PRO,Cambiemos,AFIRMATIVO,1708,Legalización del aborto,14/06/2018,https://votaciones.hcdn.gob.ar/3805.pdf,
812,"Volnovich., Luana",BUENOS AIRES,FRENTE PARA LA VICTORIA,Kirchnerismo y aliados,AFIRMATIVO,1708,Legalización del aborto,14/06/2018,https://votaciones.hcdn.gob.ar/3805.pdf,
885,"Villavicencio., María Teresita",TUCUMÁN,EVOLUCIÓN RADICAL,Otros,AFIRMATIVO,1708,Legalización del aborto,14/06/2018,https://votaciones.hcdn.gob.ar/3805.pdf,
859,"Villalonga., Juan Carlos",CDAD. AUT. BS. AS.,PRO,Cambiemos,AFIRMATIVO,1708,Legalización del aborto,14/06/2018,https://votaciones.hcdn.gob.ar/3805.pdf,
510,"Santillán,  Walter Marcelo",TUCUMÁN,FRENTE PARA LA VICTORIA,Kirchnerismo y aliados,AFIRMATIVO,1708,Legalización del aborto,14/06/2018,https://votaciones.hcdn.gob.ar/3805.pdf,
1296,"Salvarezza,  Roberto",BUENOS AIRES,FRENTE PARA LA VICTORIA,Kirchnerismo y aliados,AFIRMATIVO,1708,Legalización del aborto,14/06/2018,https://votaciones.hcdn.gob.ar/3805.pdf,
1286,"Rauschenberger,  Ariel",LA PAMPA,JUSTICIALISTA,PJ ,AFIRMATIVO,1708,Legalización del aborto,14/06/2018,https://votaciones.hcdn.gob.ar/3805.pdf,
803,"Ramos., Alejandro",SANTA FE,PRIMERO ARGENTINA,Otros,AFIRMATIVO,1708,Legalización del aborto,14/06/2018,https://votaciones.hcdn.gob.ar/3805.pdf,
802,"Rach Quiroga., Analía",CHACO,FRENTE PARA LA VICTORIA,Kirchnerismo y aliados,AFIRMATIVO,1708,Legalización del aborto,14/06/2018,https://votaciones.hcdn.gob.ar/3805.pdf,
1284,"Quetglas,  Fabio José",BUENOS AIRES,UNIÓN CÍVICA RADICAL,Cambiemos,AFIRMATIVO,1708,Legalización del aborto,14/06/2018,https://votaciones.hcdn.gob.ar/3805.pdf,
445,"Pietragalla Corti,  Horacio",BUENOS AIRES,FRENTE PARA LA VICTORIA,Kirchnerismo y aliados,AFIRMATIVO,1708,Legalización del aborto,14/06/2018,https://votaciones.hcdn.gob.ar/3805.pdf,
829,"Pérez., Raúl Joaquín",BUENOS AIRES,FEDERAL UNIDOS POR UNA NUEVA ARGENTINA,Massismo y aliados,AFIRMATIVO,1708,Legalización del aborto,14/06/2018,https://votaciones.hcdn.gob.ar/3805.pdf,
658,"Pérez,  Martín Alejandro",TIERRA DEL FUEGO,FRENTE PARA LA VICTORIA,Kirchnerismo y aliados,AFIRMATIVO,1708,Legalización del aborto,14/06/2018,https://votaciones.hcdn.gob.ar/3805.pdf,
429,"Pastoriza,  Mirta Ameliana",SANTIAGO DEL ESTERO,FRENTE CÍVICO POR SANTIAGO,Otros,AFIRMATIVO,1708,Legalización del aborto,14/06/2018,https://votaciones.hcdn.gob.ar/3805.pdf,
804,"Raverta., María Fernanda",BUENOS AIRES,FRENTE PARA LA VICTORIA,Kirchnerismo y aliados,AFIRMATIVO,1708,Legalización del aborto,14/06/2018,https://votaciones.hcdn.gob.ar/3805.pdf,
1288,"Reyes,  Roxana Nahir",SANTA CRUZ,UNIÓN CÍVICA RADICAL,Cambiemos,AFIRMATIVO,1708,Legalización del aborto,14/06/2018,https://votaciones.hcdn.gob.ar/3805.pdf,
609,"Riccardo,  José Luis",SAN LUIS,UNIÓN CÍVICA RADICAL,Cambiemos,AFIRMATIVO,1708,Legalización del aborto,14/06/2018,https://votaciones.hcdn.gob.ar/3805.pdf,
1293,"Russo,  Laura",BUENOS AIRES,FRENTE PARA LA VICTORIA,Kirchnerismo y aliados,AFIRMATIVO,1708,Legalización del aborto,14/06/2018,https://votaciones.hcdn.gob.ar/3805.pdf,
807,"Ruiz Aragón., José",CORRIENTES,FRENTE PARA LA VICTORIA,Kirchnerismo y aliados,AFIRMATIVO,1708,Legalización del aborto,14/06/2018,https://votaciones.hcdn.gob.ar/3805.pdf,
1291,"Rossi,  Agustín",SANTA FE,FRENTE PARA LA VICTORIA,Kirchnerismo y aliados,AFIRMATIVO,1708,Legalización del aborto,14/06/2018,https://votaciones.hcdn.gob.ar/3805.pdf,
856,"Roma., Carlos Gastón",TIERRA DEL FUEGO,PRO,Cambiemos,AFIRMATIVO,1708,Legalización del aborto,14/06/2018,https://votaciones.hcdn.gob.ar/3805.pdf,
806,"Rodríguez., Rodrigo",BUENOS AIRES,FRENTE PARA LA VICTORIA,Kirchnerismo y aliados,AFIRMATIVO,1708,Legalización del aborto,14/06/2018,https://votaciones.hcdn.gob.ar/3805.pdf,
805,"Rodríguez., Matías",TIERRA DEL FUEGO,FRENTE PARA LA VICTORIA,Kirchnerismo y aliados,AFIRMATIVO,1708,Legalización del aborto,14/06/2018,https://votaciones.hcdn.gob.ar/3805.pdf,
1289,"Rodenas,  Alejandra",SANTA FE,NUEVO ESPACIO SANTAFESINO,Kirchnerismo y aliados,AFIRMATIVO,1708,Legalización del aborto,14/06/2018,https://votaciones.hcdn.gob.ar/3805.pdf,
882,"Rista., Olga María",CÓRDOBA,UNIÓN CÍVICA RADICAL,Cambiemos,AFIRMATIVO,1708,Legalización del aborto,14/06/2018,https://votaciones.hcdn.gob.ar/3805.pdf,
410,"Ocaña,  Maria Graciela",BUENOS AIRES,PRO,Cambiemos,AFIRMATIVO,1708,Legalización del aborto,14/06/2018,https://votaciones.hcdn.gob.ar/3805.pdf,
1327,"Cantard,  Albor Angel",SANTA FE,UNIÓN CÍVICA RADICAL,Cambiemos,AFIRMATIVO,1708,Legalización del aborto,14/06/2018,https://votaciones.hcdn.gob.ar/3805.pdf,
71,"Benedetti,  Atilio Francisco Salvador",ENTRE RÍOS,UNIÓN CÍVICA RADICAL,Cambiemos,AFIRMATIVO,1708,Legalización del aborto,14/06/2018,https://votaciones.hcdn.gob.ar/3805.pdf,
65,"Bazze,  Miguel Ángel",BUENOS AIRES,UNIÓN CÍVICA RADICAL,Cambiemos,AFIRMATIVO,1708,Legalización del aborto,14/06/2018,https://votaciones.hcdn.gob.ar/3805.pdf,
673,"De Mendiguren,  José Ignacio",BUENOS AIRES,FEDERAL UNIDOS POR UNA NUEVA ARGENTINA,Massismo y aliados,AFIRMATIVO,1708,Legalización del aborto,14/06/2018,https://votaciones.hcdn.gob.ar/3805.pdf,
63,"Basterra,  Luis Eugenio",FORMOSA,FRENTE PARA LA VICTORIA,Kirchnerismo y aliados,AFIRMATIVO,1708,Legalización del aborto,14/06/2018,https://votaciones.hcdn.gob.ar/3805.pdf,
177,"De Pedro,  Eduardo Enrique",BUENOS AIRES,FRENTE PARA LA VICTORIA,Kirchnerismo y aliados,AFIRMATIVO,1708,Legalización del aborto,14/06/2018,https://votaciones.hcdn.gob.ar/3805.pdf,
779,"De Ponti., Lucila María",SANTA FE,PERONISMO PARA LA VICTORIA,PJ ,AFIRMATIVO,1708,Legalización del aborto,14/06/2018,https://votaciones.hcdn.gob.ar/3805.pdf,
871,"Banfi., Karina Verónica",BUENOS AIRES,UNIÓN CÍVICA RADICAL,Cambiemos,AFIRMATIVO,1708,Legalización del aborto,14/06/2018,https://votaciones.hcdn.gob.ar/3805.pdf,
695,"Del Caño,  Nicolás",BUENOS AIRES,PTS - FRENTE DE IZQUIERDA,Izquierda,AFIRMATIVO,1708,Legalización del aborto,14/06/2018,https://votaciones.hcdn.gob.ar/3805.pdf,
1242,"Del Plá,  Romina",BUENOS AIRES,FTE. DE IZQUIERDA Y DE LOS TRABAJADORES,Izquierda,AFIRMATIVO,1708,Legalización del aborto,14/06/2018,https://votaciones.hcdn.gob.ar/3805.pdf,
1226,"Bahillo,  Juanjo",ENTRE RÍOS,JUSTICIALISTA,PJ ,AFIRMATIVO,1708,Legalización del aborto,14/06/2018,https://votaciones.hcdn.gob.ar/3805.pdf,
1225,"Ayala,  Aida Beatriz Máxima",CHACO,UNIÓN CÍVICA RADICAL,Cambiemos,AFIRMATIVO,1708,Legalización del aborto,14/06/2018,https://votaciones.hcdn.gob.ar/3805.pdf,
1243,"Delú,  Melina Aida",LA PAMPA,JUSTICIALISTA,PJ ,AFIRMATIVO,1708,Legalización del aborto,14/06/2018,https://votaciones.hcdn.gob.ar/3805.pdf,
1239,"Correa,  Walter",BUENOS AIRES,FRENTE PARA LA VICTORIA,Kirchnerismo y aliados,AFIRMATIVO,1708,Legalización del aborto,14/06/2018,https://votaciones.hcdn.gob.ar/3805.pdf,
143,"Cleri,  Marcos",SANTA FE,FRENTE PARA LA VICTORIA,Kirchnerismo y aliados,AFIRMATIVO,1708,Legalización del aborto,14/06/2018,https://votaciones.hcdn.gob.ar/3805.pdf,
139,"Ciampini,  José Alberto",NEUQUÉN,FRENTE PARA LA VICTORIA,Kirchnerismo y aliados,AFIRMATIVO,1708,Legalización del aborto,14/06/2018,https://votaciones.hcdn.gob.ar/3805.pdf,
118,"Carmona,  Guillermo Ramón",MENDOZA,FRENTE PARA LA VICTORIA,Kirchnerismo y aliados,AFIRMATIVO,1708,Legalización del aborto,14/06/2018,https://votaciones.hcdn.gob.ar/3805.pdf,
626,"Cabandié,  Juan",CDAD. AUT. BS. AS.,FRENTE PARA LA VICTORIA,Kirchnerismo y aliados,AFIRMATIVO,1708,Legalización del aborto,14/06/2018,https://votaciones.hcdn.gob.ar/3805.pdf,
864,"Buil., Sergio Omar",BUENOS AIRES,PRO,Cambiemos,AFIRMATIVO,1708,Legalización del aborto,14/06/2018,https://votaciones.hcdn.gob.ar/3805.pdf,
1229,"Bucca,  Eduardo",BUENOS AIRES,JUSTICIALISTA,PJ ,AFIRMATIVO,1708,Legalización del aborto,14/06/2018,https://votaciones.hcdn.gob.ar/3805.pdf,
715,"Carrizo,  Ana Carla",CDAD. AUT. BS. AS.,EVOLUCIÓN RADICAL,Otros,AFIRMATIVO,1708,Legalización del aborto,14/06/2018,https://votaciones.hcdn.gob.ar/3805.pdf,
771,"Britez., María Cristina",MISIONES,FRENTE PARA LA VICTORIA,Kirchnerismo y aliados,AFIRMATIVO,1708,Legalización del aborto,14/06/2018,https://votaciones.hcdn.gob.ar/3805.pdf,
1235,"Carro,  Pablo",CÓRDOBA,FRENTE PARA LA VICTORIA,Kirchnerismo y aliados,AFIRMATIVO,1708,Legalización del aborto,14/06/2018,https://votaciones.hcdn.gob.ar/3805.pdf,
1228,"Brambilla,  Sofía",CORRIENTES,PRO,Cambiemos,AFIRMATIVO,1708,Legalización del aborto,14/06/2018,https://votaciones.hcdn.gob.ar/3805.pdf,
91,"Borsani.,  Luis Gustavo",MENDOZA,UNIÓN CÍVICA RADICAL,Cambiemos,AFIRMATIVO,1708,Legalización del aborto,14/06/2018,https://votaciones.hcdn.gob.ar/3805.pdf,
775,"Castagneto., Carlos",BUENOS AIRES,FRENTE PARA LA VICTORIA,Kirchnerismo y aliados,AFIRMATIVO,1708,Legalización del aborto,14/06/2018,https://votaciones.hcdn.gob.ar/3805.pdf,
773,"Carol., Analuz Ailen",TIERRA DEL FUEGO,FRENTE PARA LA VICTORIA,Kirchnerismo y aliados,AFIRMATIVO,1708,Legalización del aborto,14/06/2018,https://votaciones.hcdn.gob.ar/3805.pdf,
1237,"Cerruti,  Gabriela",C.A.B.A.,FRENTE PARA LA VICTORIA,Kirchnerismo y aliados,AFIRMATIVO,1708,Legalización del aborto,14/06/2018,https://votaciones.hcdn.gob.ar/3805.pdf,
781,"Di Stefano., Daniel",MISIONES,FRENTE DE LA CONCORDIA MISIONERO,PJ ,AFIRMATIVO,1708,Legalización del aborto,14/06/2018,https://votaciones.hcdn.gob.ar/3805.pdf,
616,"Donda,  Victoria",CDAD. AUT. BS. AS.,LIBRES DEL SUR,Otros,AFIRMATIVO,1708,Legalización del aborto,14/06/2018,https://votaciones.hcdn.gob.ar/3805.pdf,
873,"Echegaray., Alejandro Carlos Augusto",BUENOS AIRES,UNIÓN CÍVICA RADICAL,Cambiemos,AFIRMATIVO,1708,Legalización del aborto,14/06/2018,https://votaciones.hcdn.gob.ar/3805.pdf,
783,"Estevez., Gabriela",CÓRDOBA,FRENTE PARA LA VICTORIA,Kirchnerismo y aliados,AFIRMATIVO,1708,Legalización del aborto,14/06/2018,https://votaciones.hcdn.gob.ar/3805.pdf,
785,"Franco., Jorge Daniel",MISIONES,FRENTE DE LA CONCORDIA MISIONERO,PJ ,AFIRMATIVO,1708,Legalización del aborto,14/06/2018,https://votaciones.hcdn.gob.ar/3805.pdf,
1241,"Del Cerro,  Gonzalo Pedro Antonio",SANTA FE,UNIÓN CÍVICA RADICAL,Cambiemos,AFIRMATIVO,1708,Legalización del aborto,14/06/2018,https://votaciones.hcdn.gob.ar/3805.pdf,
24,"Alvarez Rodriguez.,  Cristina",BUENOS AIRES,FRENTE PARA LA VICTORIA,Kirchnerismo y aliados,AFIRMATIVO,1708,Legalización del aborto,14/06/2018,https://votaciones.hcdn.gob.ar/3805.pdf,
838,"Acerenza., Samantha",BUENOS AIRES,PRO,Cambiemos,AFIRMATIVO,1708,Legalización del aborto,14/06/2018,https://votaciones.hcdn.gob.ar/3805.pdf,
1249,"Fernandez,  Carlos Alberto",BUENOS AIRES,UNIÓN CÍVICA RADICAL,Cambiemos,AFIRMATIVO,1708,Legalización del aborto,14/06/2018,https://votaciones.hcdn.gob.ar/3805.pdf,
1176,"Ferreyra,  Araceli Susana Del Rosario",CORRIENTES,PERONISMO PARA LA VICTORIA,PJ ,AFIRMATIVO,1708,Legalización del aborto,14/06/2018,https://votaciones.hcdn.gob.ar/3805.pdf,
1250,"Filmus,  Daniel",C.A.B.A.,FRENTE PARA LA VICTORIA,Kirchnerismo y aliados,AFIRMATIVO,1708,Legalización del aborto,14/06/2018,https://votaciones.hcdn.gob.ar/3805.pdf,
1223,"Arroyo,  Daniel Fernando",BUENOS AIRES,FEDERAL UNIDOS POR UNA NUEVA ARGENTINA,Massismo y aliados,AFIRMATIVO,1708,Legalización del aborto,14/06/2018,https://votaciones.hcdn.gob.ar/3805.pdf,
1219,"Alonso,  Laura Valeria",BUENOS AIRES,FRENTE PARA LA VICTORIA,Kirchnerismo y aliados,AFIRMATIVO,1708,Legalización del aborto,14/06/2018,https://votaciones.hcdn.gob.ar/3805.pdf,
1246,"Espinoza,  Fernando",BUENOS AIRES,FRENTE PARA LA VICTORIA,Kirchnerismo y aliados,AFIRMATIVO,1708,Legalización del aborto,14/06/2018,https://votaciones.hcdn.gob.ar/3805.pdf,
782,"Doñate., Claudio Martín ",RIO NEGRO,FRENTE PARA LA VICTORIA,Kirchnerismo y aliados,AFIRMATIVO,1708,Legalización del aborto,14/06/2018,https://votaciones.hcdn.gob.ar/3805.pdf,
1167,"Austin., Brenda",CÓRDOBA,UNIÓN CÍVICA RADICAL,Cambiemos,AFIRMATIVO,1708,Legalización del aborto,14/06/2018,https://votaciones.hcdn.gob.ar/3805.pdf,
1332,"Asencio,  Fernando",BUENOS AIRES,FEDERAL UNIDOS POR UNA NUEVA ARGENTINA,Massismo y aliados,AFIRMATIVO,1708,Legalización del aborto,14/06/2018,https://votaciones.hcdn.gob.ar/3805.pdf,
1214,"De Vido,  Julio (Suspendido Art 70 C.N.)",BUENOS AIRES,FRENTE PARA LA VICTORIA,Kirchnerismo y aliados,AUSENTE,1708,Legalización del aborto,14/06/2018,https://votaciones.hcdn.gob.ar/3805.pdf,
1312,"Zamarbide,  Federico Raùl",MENDOZA,UNIÓN CÍVICA RADICAL,Cambiemos,NEGATIVO,1708,Legalización del aborto,14/06/2018,https://votaciones.hcdn.gob.ar/3805.pdf,
595,"Brizuela Del Moral,  Eduardo Segundo",CATAMARCA,FTE. CÍVICO Y SOCIAL DE CATAMARCA,Cambiemos,NEGATIVO,1708,Legalización del aborto,14/06/2018,https://votaciones.hcdn.gob.ar/3805.pdf,
770,"Bossio., Diego",BUENOS AIRES,JUSTICIALISTA,PJ ,NEGATIVO,1708,Legalización del aborto,14/06/2018,https://votaciones.hcdn.gob.ar/3805.pdf,
1217,"Aicega,  Juan",BUENOS AIRES,PRO,Cambiemos,NEGATIVO,1708,Legalización del aborto,14/06/2018,https://votaciones.hcdn.gob.ar/3805.pdf,
1290,"Romero,  Jorge Antonio",CORRIENTES,FRENTE PARA LA VICTORIA,PJ ,NEGATIVO,1708,Legalización del aborto,14/06/2018,https://votaciones.hcdn.gob.ar/3805.pdf,
1179,"Peñaloza Marianetti.,  Marìa Florencia",SAN JUAN,SOMOS SAN JUAN,Otros,NEGATIVO,1708,Legalización del aborto,14/06/2018,https://votaciones.hcdn.gob.ar/3805.pdf,
607,"Petri,  Luis Alfonso",MENDOZA,UNIÓN CÍVICA RADICAL,Cambiemos,NEGATIVO,1708,Legalización del aborto,14/06/2018,https://votaciones.hcdn.gob.ar/3805.pdf,
1218,"Allende,  Walberto Enrique",SAN JUAN,TODOS JUNTOS POR SAN JUAN,PJ ,NEGATIVO,1708,Legalización del aborto,14/06/2018,https://votaciones.hcdn.gob.ar/3805.pdf,
1331,"Bragagnolo,  Sebastián",MENDOZA,PRO,Cambiemos,NEGATIVO,1708,Legalización del aborto,14/06/2018,https://votaciones.hcdn.gob.ar/3805.pdf,
823,"Brügge., Juan",CÓRDOBA,CÓRDOBA FEDERAL,PJ ,NEGATIVO,1708,Legalización del aborto,14/06/2018,https://votaciones.hcdn.gob.ar/3805.pdf,
1329,"Ricci,  Nadia Lorena",SANTA CRUZ,UNIÓN CÍVICA RADICAL,Cambiemos,NEGATIVO,1708,Legalización del aborto,14/06/2018,https://votaciones.hcdn.gob.ar/3805.pdf,
1282,"Piccolomini,  María Carla",BUENOS AIRES,PRO,Cambiemos,NEGATIVO,1708,Legalización del aborto,14/06/2018,https://votaciones.hcdn.gob.ar/3805.pdf,
855,"Pretto., Pedro Javier",CÓRDOBA,PRO,Cambiemos,NEGATIVO,1708,Legalización del aborto,14/06/2018,https://votaciones.hcdn.gob.ar/3805.pdf,
1230,"Campagnoli,  Marcela",BUENOS AIRES,COALICIÓN CÍVICA,Cambiemos,NEGATIVO,1708,Legalización del aborto,14/06/2018,https://votaciones.hcdn.gob.ar/3805.pdf,
108,"Camaño,  Graciela",BUENOS AIRES,FEDERAL UNIDOS POR UNA NUEVA ARGENTINA,Massismo y aliados,NEGATIVO,1708,Legalización del aborto,14/06/2018,https://votaciones.hcdn.gob.ar/3805.pdf,
1285,"Ramón,  José Luis",MENDOZA,PARTIDO INTRANSIGENTE DE MENDOZA,Otros,NEGATIVO,1708,Legalización del aborto,14/06/2018,https://votaciones.hcdn.gob.ar/3805.pdf,
830,"Pitiot., Carla Betina",CDAD. AUT. BS. AS.,FEDERAL UNIDOS POR UNA NUEVA ARGENTINA,Massismo y aliados,NEGATIVO,1708,Legalización del aborto,14/06/2018,https://votaciones.hcdn.gob.ar/3805.pdf,
588,"Zottos,  Miguel Andrés Costas",SALTA,JUSTICIALISTA,PJ ,NEGATIVO,1708,Legalización del aborto,14/06/2018,https://votaciones.hcdn.gob.ar/3805.pdf,
740,"Cáceres,  Eduardo",SAN JUAN,PRO,Cambiemos,NEGATIVO,1708,Legalización del aborto,14/06/2018,https://votaciones.hcdn.gob.ar/3805.pdf,
603,"Burgos,  María Gabriela",JUJUY,UNIÓN CÍVICA RADICAL,Cambiemos,NEGATIVO,1708,Legalización del aborto,14/06/2018,https://votaciones.hcdn.gob.ar/3805.pdf,
1287,"Regidor Belledone,  Estela Mercedes",CORRIENTES,UNIÓN CÍVICA RADICAL,Cambiemos,NEGATIVO,1708,Legalización del aborto,14/06/2018,https://votaciones.hcdn.gob.ar/3805.pdf,
1231,"Campos,  Javier",BUENOS AIRES,COALICIÓN CÍVICA,Cambiemos,NEGATIVO,1708,Legalización del aborto,14/06/2018,https://votaciones.hcdn.gob.ar/3805.pdf,
1313,"Zamora,  Claudia",SANTIAGO DEL ESTERO,FRENTE CÍVICO POR SANTIAGO,Otros,NEGATIVO,1708,Legalización del aborto,14/06/2018,https://votaciones.hcdn.gob.ar/3805.pdf,
1283,"Polledo,  Carmen",C.A.B.A.,PRO,Cambiemos,NEGATIVO,1708,Legalización del aborto,14/06/2018,https://votaciones.hcdn.gob.ar/3805.pdf,
1292,"Rosso,  Victoria",SAN LUIS,UNIDAD JUSTICIALISTA,Otros,NEGATIVO,1708,Legalización del aborto,14/06/2018,https://votaciones.hcdn.gob.ar/3805.pdf,
80,"Bianchi,  Ivana María",SAN LUIS,UNIDAD JUSTICIALISTA,Kirchnerismo y aliados,NEGATIVO,1708,Legalización del aborto,14/06/2018,https://votaciones.hcdn.gob.ar/3805.pdf,
1222,"Arce,  Mario Horacio",FORMOSA,UNIÓN CÍVICA RADICAL,Cambiemos,NEGATIVO,1708,Legalización del aborto,14/06/2018,https://votaciones.hcdn.gob.ar/3805.pdf,
832,"Snopek., Alejandro Francisco",JUJUY,FEDERAL UNIDOS POR UNA NUEVA ARGENTINA,Massismo y aliados,NEGATIVO,1708,Legalización del aborto,14/06/2018,https://votaciones.hcdn.gob.ar/3805.pdf,
1204,"Vera Gonzalez,  Orieta Cecilia",CATAMARCA,COALICIÓN CÍVICA,Cambiemos,NEGATIVO,1708,Legalización del aborto,14/06/2018,https://votaciones.hcdn.gob.ar/3805.pdf,
1305,"Vallone,  Andres Alberto",SAN LUIS,UNIDAD JUSTICIALISTA,PJ ,NEGATIVO,1708,Legalización del aborto,14/06/2018,https://votaciones.hcdn.gob.ar/3805.pdf,
527,"Solanas,  Julio Rodolfo",ENTRE RÍOS,FRENTE PARA LA VICTORIA,Kirchnerismo y aliados,NEGATIVO,1708,Legalización del aborto,14/06/2018,https://votaciones.hcdn.gob.ar/3805.pdf,
809,"Soraire., Mirta Alicia",TUCUMÁN,FRENTE PARA LA VICTORIA,Kirchnerismo y aliados,NEGATIVO,1708,Legalización del aborto,14/06/2018,https://votaciones.hcdn.gob.ar/3805.pdf,
619,"Baldassi,  Héctor",CÓRDOBA,PRO,Cambiemos,NEGATIVO,1708,Legalización del aborto,14/06/2018,https://votaciones.hcdn.gob.ar/3805.pdf,
857,"Torello., Pablo",BUENOS AIRES,PRO,Cambiemos,NEGATIVO,1708,Legalización del aborto,14/06/2018,https://votaciones.hcdn.gob.ar/3805.pdf,
810,"Taboada., Jorge Omar",CHUBUT,"CULTURA, EDUCACIÓN Y TRABAJO",PJ ,NEGATIVO,1708,Legalización del aborto,14/06/2018,https://votaciones.hcdn.gob.ar/3805.pdf,
1224,"Ávila,  Beatriz Luisa",TUCUMÁN,PARTIDO POR LA JUSTICIA SOCIAL,Cambiemos,NEGATIVO,1708,Legalización del aborto,14/06/2018,https://votaciones.hcdn.gob.ar/3805.pdf,
858,"Urroz., Paula Marcela",BUENOS AIRES,PRO,Cambiemos,NEGATIVO,1708,Legalización del aborto,14/06/2018,https://votaciones.hcdn.gob.ar/3805.pdf,
540,"Terada,  Alicia",CHACO,COALICIÓN CÍVICA - ARI - UNEN,Cambiemos,NEGATIVO,1708,Legalización del aborto,14/06/2018,https://votaciones.hcdn.gob.ar/3805.pdf,
1308,"Villa,  Natalia Soledad",BUENOS AIRES,PRO,Cambiemos,NEGATIVO,1708,Legalización del aborto,14/06/2018,https://votaciones.hcdn.gob.ar/3805.pdf,
1221,"Ansaloni,  Pablo Miguel",BUENOS AIRES,PRO,Cambiemos,NEGATIVO,1708,Legalización del aborto,14/06/2018,https://votaciones.hcdn.gob.ar/3805.pdf,
1294,"Saadi,  Gustavo Arturo",CATAMARCA,ELIJO CATAMARCA,PJ ,NEGATIVO,1708,Legalización del aborto,14/06/2018,https://votaciones.hcdn.gob.ar/3805.pdf,
1295,"Sahad,  Julio Enrique",LA RIOJA,PRO,Cambiemos,NEGATIVO,1708,Legalización del aborto,14/06/2018,https://votaciones.hcdn.gob.ar/3805.pdf,
1309,"Wellbach,  Ricardo",MISIONES,FRENTE DE LA CONCORDIA MISIONERO,Otros,NEGATIVO,1708,Legalización del aborto,14/06/2018,https://votaciones.hcdn.gob.ar/3805.pdf,
1220,"Alume Sbodio,  Karim Augusto",SAN LUIS,UNIDAD JUSTICIALISTA,Otros,NEGATIVO,1708,Legalización del aborto,14/06/2018,https://votaciones.hcdn.gob.ar/3805.pdf,
819,"Bevilacqua., Gustavo",BUENOS AIRES,FEDERAL UNIDOS POR UNA NUEVA ARGENTINA,Massismo y aliados,NEGATIVO,1708,Legalización del aborto,14/06/2018,https://votaciones.hcdn.gob.ar/3805.pdf,
1227,"Berisso,  Hernán",BUENOS AIRES,PRO,Cambiemos,NEGATIVO,1708,Legalización del aborto,14/06/2018,https://votaciones.hcdn.gob.ar/3805.pdf,
1330,"Sapag,  Alma Liliana",NEUQUÉN,MOVIMIENTO POPULAR NEUQUINO,Otros,NEGATIVO,1708,Legalización del aborto,14/06/2018,https://votaciones.hcdn.gob.ar/3805.pdf,
623,"Scaglia,  Gisela",SANTA FE,PRO,Cambiemos,NEGATIVO,1708,Legalización del aborto,14/06/2018,https://votaciones.hcdn.gob.ar/3805.pdf,
1298,"Schlereth,  David Pablo",NEUQUÉN,PRO,Cambiemos,NEGATIVO,1708,Legalización del aborto,14/06/2018,https://votaciones.hcdn.gob.ar/3805.pdf,
763,"Schmidt Liermann, Cornelia",CDAD. AUT. BS. AS.,UNIÓN PRO,Cambiemos,NEGATIVO,1708,Legalización del aborto,14/06/2018,https://votaciones.hcdn.gob.ar/3805.pdf,
29,"Amadeo.,  Eduardo Pablo",BUENOS AIRES,PRO,Cambiemos,NEGATIVO,1708,Legalización del aborto,14/06/2018,https://votaciones.hcdn.gob.ar/3805.pdf,
831,"Selva., Carlos Américo",BUENOS AIRES,FEDERAL UNIDOS POR UNA NUEVA ARGENTINA,Massismo y aliados,NEGATIVO,1708,Legalización del aborto,14/06/2018,https://votaciones.hcdn.gob.ar/3805.pdf,
547,"Tonelli,  Pablo Gabriel",CDAD. AUT. BS. AS.,UNIÓN PRO,Cambiemos,NEGATIVO,1708,Legalización del aborto,14/06/2018,https://votaciones.hcdn.gob.ar/3805.pdf,
1254,"Frizza,  Gabriel Alberto",CÓRDOBA,PRO,Cambiemos,NEGATIVO,1708,Legalización del aborto,14/06/2018,https://votaciones.hcdn.gob.ar/3805.pdf,
846,"Incicco., Lucas",SANTA FE,PRO,Cambiemos,NEGATIVO,1708,Legalización del aborto,14/06/2018,https://votaciones.hcdn.gob.ar/3805.pdf,
1259,"Infante,  Hugo Orlando",SANTIAGO DEL ESTERO,FRENTE CÍVICO POR SANTIAGO,Otros,NEGATIVO,1708,Legalización del aborto,14/06/2018,https://votaciones.hcdn.gob.ar/3805.pdf,
872,"Dindart., Julián",CORRIENTES,UNIÓN CÍVICA RADICAL,Cambiemos,NEGATIVO,1708,Legalización del aborto,14/06/2018,https://votaciones.hcdn.gob.ar/3805.pdf,
310,"Kosiner,  Pablo Francisco Juan",SALTA,JUSTICIALISTA,PJ ,NEGATIVO,1708,Legalización del aborto,14/06/2018,https://votaciones.hcdn.gob.ar/3805.pdf,
1244,"Derna,  Verónica",MISIONES,FRENTE DE LA CONCORDIA MISIONERO,PJ ,NEGATIVO,1708,Legalización del aborto,14/06/2018,https://votaciones.hcdn.gob.ar/3805.pdf,
765,"Laspina,  Luciano",SANTA FE,PRO,Cambiemos,NEGATIVO,1708,Legalización del aborto,14/06/2018,https://votaciones.hcdn.gob.ar/3805.pdf,
822,"Lavagna., Marco Juan",CDAD. AUT. BS. AS.,FEDERAL UNIDOS POR UNA NUEVA ARGENTINA,Massismo y aliados,NEGATIVO,1708,Legalización del aborto,14/06/2018,https://votaciones.hcdn.gob.ar/3805.pdf,
1261,"Leavy,  Sergio Napoleón",SALTA,FRENTE PARA LA VICTORIA,Kirchnerismo y aliados,NEGATIVO,1708,Legalización del aborto,14/06/2018,https://votaciones.hcdn.gob.ar/3805.pdf,
1262,"Lehmann,  María Lucila",SANTA FE,COALICIÓN CÍVICA,Cambiemos,NEGATIVO,1708,Legalización del aborto,14/06/2018,https://votaciones.hcdn.gob.ar/3805.pdf,
1212,"Llanos Massa, Ana Maria",CHUBUT,FRENTE PARA LA VICTORIA,Kirchnerismo y aliados,NEGATIVO,1708,Legalización del aborto,14/06/2018,https://votaciones.hcdn.gob.ar/3805.pdf,
1263,"Llaryora,  Martín Miguel",CÓRDOBA,CÓRDOBA FEDERAL,PJ ,NEGATIVO,1708,Legalización del aborto,14/06/2018,https://votaciones.hcdn.gob.ar/3805.pdf,
1,"Abdala De Matarazzo,  Norma Amanda",SANTIAGO DEL ESTERO,FRENTE CÍVICO POR SANTIAGO,Otros,NEGATIVO,1708,Legalización del aborto,14/06/2018,https://votaciones.hcdn.gob.ar/3805.pdf,
666,"Lotto,  Inés Beatriz",FORMOSA,FRENTE PARA LA VICTORIA,Kirchnerismo y aliados,NEGATIVO,1708,Legalización del aborto,14/06/2018,https://votaciones.hcdn.gob.ar/3805.pdf,
796,"Macias., Oscar Alberto",CORRIENTES,JUSTICIALISTA,PJ ,NEGATIVO,1708,Legalización del aborto,14/06/2018,https://votaciones.hcdn.gob.ar/3805.pdf,
867,"Maquieyra., Martín",LA PAMPA,PRO,Cambiemos,NEGATIVO,1708,Legalización del aborto,14/06/2018,https://votaciones.hcdn.gob.ar/3805.pdf,
1266,"Martiarena,  José Luis",JUJUY,JUSTICIALISTA,PJ ,NEGATIVO,1708,Legalización del aborto,14/06/2018,https://votaciones.hcdn.gob.ar/3805.pdf,
1245,"Enriquez,  Jorge Ricardo",C.A.B.A.,PRO,Cambiemos,NEGATIVO,1708,Legalización del aborto,14/06/2018,https://votaciones.hcdn.gob.ar/3805.pdf,
1258,"Hummel,  Astrid",SANTA FE,PRO,Cambiemos,NEGATIVO,1708,Legalización del aborto,14/06/2018,https://votaciones.hcdn.gob.ar/3805.pdf,
784,"Frana., Silvina Patricia",SANTA FE,FRENTE PARA LA VICTORIA,Kirchnerismo y aliados,NEGATIVO,1708,Legalización del aborto,14/06/2018,https://votaciones.hcdn.gob.ar/3805.pdf,
1252,"Flores,  Héctor Toty",BUENOS AIRES,COALICIÓN CÍVICA,Cambiemos,NEGATIVO,1708,Legalización del aborto,14/06/2018,https://votaciones.hcdn.gob.ar/3805.pdf,
842,"Garretón., Facundo",TUCUMÁN,PRO,Cambiemos,NEGATIVO,1708,Legalización del aborto,14/06/2018,https://votaciones.hcdn.gob.ar/3805.pdf,
1251,"Flores,  Danilo Adrián",LA RIOJA,JUSTICIALISTA,PJ ,NEGATIVO,1708,Legalización del aborto,14/06/2018,https://votaciones.hcdn.gob.ar/3805.pdf,
1256,"Ginocchio,  Silvana Micaela",CATAMARCA,ELIJO CATAMARCA,PJ ,NEGATIVO,1708,Legalización del aborto,14/06/2018,https://votaciones.hcdn.gob.ar/3805.pdf,
260,"Gioja., José Luis",SAN JUAN,FRENTE PARA LA VICTORIA,Kirchnerismo y aliados,NEGATIVO,1708,Legalización del aborto,14/06/2018,https://votaciones.hcdn.gob.ar/3805.pdf,
874,"Goicoechea., Horacio",CHACO,UNIÓN CÍVICA RADICAL,Cambiemos,NEGATIVO,1708,Legalización del aborto,14/06/2018,https://votaciones.hcdn.gob.ar/3805.pdf,
844,"González., Álvaro Gustavo",CDAD. AUT. BS. AS.,PRO,Cambiemos,NEGATIVO,1708,Legalización del aborto,14/06/2018,https://votaciones.hcdn.gob.ar/3805.pdf,
1257,"Grande,  Martín",SALTA,PRO,Cambiemos,NEGATIVO,1708,Legalización del aborto,14/06/2018,https://votaciones.hcdn.gob.ar/3805.pdf,
821,"Grandinetti., Alejandro Ariel",SANTA FE,FEDERAL UNIDOS POR UNA NUEVA ARGENTINA,Massismo y aliados,NEGATIVO,1708,Legalización del aborto,14/06/2018,https://votaciones.hcdn.gob.ar/3805.pdf,
1248,"Fernandez Patri,  Gustavo Ramiro",FORMOSA,FRENTE PARA LA VICTORIA,PJ ,NEGATIVO,1708,Legalización del aborto,14/06/2018,https://votaciones.hcdn.gob.ar/3805.pdf,
1247,"Fernandez Langan,  Ezequiel",BUENOS AIRES,PRO,Cambiemos,NEGATIVO,1708,Legalización del aborto,14/06/2018,https://votaciones.hcdn.gob.ar/3805.pdf,
875,"Hernández., Martín",FORMOSA,UNIÓN CÍVICA RADICAL,Cambiemos,NEGATIVO,1708,Legalización del aborto,14/06/2018,https://votaciones.hcdn.gob.ar/3805.pdf,
208,"Felix,  Omar",MENDOZA,SOMOS MENDOZA,PJ ,NEGATIVO,1708,Legalización del aborto,14/06/2018,https://votaciones.hcdn.gob.ar/3805.pdf,
1253,"Fregonese,  Alicia",ENTRE RÍOS,PRO,Cambiemos,NEGATIVO,1708,Legalización del aborto,14/06/2018,https://votaciones.hcdn.gob.ar/3805.pdf,
884,"Huczak., Stella",MENDOZA,PRO,Cambiemos,NEGATIVO,1708,Legalización del aborto,14/06/2018,https://votaciones.hcdn.gob.ar/3805.pdf,
877,"Martínez Villada., Leonor",CÓRDOBA,COALICIÓN CÍVICA,Cambiemos,NEGATIVO,1708,Legalización del aborto,14/06/2018,https://votaciones.hcdn.gob.ar/3805.pdf,
1328,"David,  Javier",SALTA,JUSTICIALISTA,PJ ,NEGATIVO,1708,Legalización del aborto,14/06/2018,https://votaciones.hcdn.gob.ar/3805.pdf,
122,"Carrió,  Elisa María",CDAD. AUT. BS. AS.,COALICIÓN CÍVICA,Cambiemos,NEGATIVO,1708,Legalización del aborto,14/06/2018,https://votaciones.hcdn.gob.ar/3805.pdf,
880,"Nanni., Miguel",SALTA,UNIÓN CÍVICA RADICAL,Cambiemos,NEGATIVO,1708,Legalización del aborto,14/06/2018,https://votaciones.hcdn.gob.ar/3805.pdf,
403,"Navarro,  Graciela",SANTIAGO DEL ESTERO,FRENTE CÍVICO POR SANTIAGO,Otros,NEGATIVO,1708,Legalización del aborto,14/06/2018,https://votaciones.hcdn.gob.ar/3805.pdf,
827,"Nazario., Adriana",CÓRDOBA,CÓRDOBA TRABAJO Y PRODUCCIÓN,Massismo y aliados,NEGATIVO,1708,Legalización del aborto,14/06/2018,https://votaciones.hcdn.gob.ar/3805.pdf,
1216,"Neder,  Estela Mary",SANTIAGO DEL ESTERO,FRENTE CÍVICO POR SANTIAGO,Otros,NEGATIVO,1708,Legalización del aborto,14/06/2018,https://votaciones.hcdn.gob.ar/3805.pdf,
651,"Castro,  Sandra",SAN JUAN,FRENTE PARA LA VICTORIA,PJ ,NEGATIVO,1708,Legalización del aborto,14/06/2018,https://votaciones.hcdn.gob.ar/3805.pdf,
854,"Núñez., José Carlos",SANTA FE,PRO,Cambiemos,NEGATIVO,1708,Legalización del aborto,14/06/2018,https://votaciones.hcdn.gob.ar/3805.pdf,
720,"Olivares,  Héctor Enrique",LA RIOJA,UNIÓN CÍVICA RADICAL,Cambiemos,NEGATIVO,1708,Legalización del aborto,14/06/2018,https://votaciones.hcdn.gob.ar/3805.pdf,
1280,"Oliveto Lago,  Paula Mariana",C.A.B.A.,COALICIÓN CÍVICA,Cambiemos,NEGATIVO,1708,Legalización del aborto,14/06/2018,https://votaciones.hcdn.gob.ar/3805.pdf,
412,"Olmedo.,  Alfredo Horacio",SALTA,SALTA SOMOS TODOS,Cambiemos,NEGATIVO,1708,Legalización del aborto,14/06/2018,https://votaciones.hcdn.gob.ar/3805.pdf,
800,"Orellana., José Fernando",TUCUMÁN,JUSTICIALISTA POR TUCUMÁN,PJ ,NEGATIVO,1708,Legalización del aborto,14/06/2018,https://votaciones.hcdn.gob.ar/3805.pdf,
828,"Passo., Marcela",BUENOS AIRES,FEDERAL UNIDOS POR UNA NUEVA ARGENTINA,Massismo y aliados,NEGATIVO,1708,Legalización del aborto,14/06/2018,https://votaciones.hcdn.gob.ar/3805.pdf,
608,"Pastori,  Luis Mario",MISIONES,UNIÓN CÍVICA RADICAL,Cambiemos,NEGATIVO,1708,Legalización del aborto,14/06/2018,https://votaciones.hcdn.gob.ar/3805.pdf,
1233,"Carambia,  Antonio José",SANTA CRUZ,PRO,Cambiemos,NEGATIVO,1708,Legalización del aborto,14/06/2018,https://votaciones.hcdn.gob.ar/3805.pdf,
801,"Pereyra., Juan Manuel",CÓRDOBA,CONCERTACIÓN FORJA,Otros,NEGATIVO,1708,Legalización del aborto,14/06/2018,https://votaciones.hcdn.gob.ar/3805.pdf,
614,"Cano,  José Manuel",TUCUMÁN,UNIÓN CÍVICA RADICAL,Cambiemos,NEGATIVO,1708,Legalización del aborto,14/06/2018,https://votaciones.hcdn.gob.ar/3805.pdf,
1278,"Muñoz,  Rosa Rosario",CHUBUT,TRABAJO Y DIGNIDAD,Massismo y aliados,NEGATIVO,1708,Legalización del aborto,14/06/2018,https://votaciones.hcdn.gob.ar/3805.pdf,
1277,"Mosqueda,  Juan",CHACO,JUSTICIALISTA,PJ ,NEGATIVO,1708,Legalización del aborto,14/06/2018,https://votaciones.hcdn.gob.ar/3805.pdf,
1240,"Cresto,  Mayda",ENTRE RÍOS,JUSTICIALISTA,PJ ,NEGATIVO,1708,Legalización del aborto,14/06/2018,https://votaciones.hcdn.gob.ar/3805.pdf,
824,"Massetani., Vanesa",SANTA FE,FEDERAL UNIDOS POR UNA NUEVA ARGENTINA,Massismo y aliados,NEGATIVO,1708,Legalización del aborto,14/06/2018,https://votaciones.hcdn.gob.ar/3805.pdf,
851,"Massot., Nicolás",CÓRDOBA,PRO,Cambiemos,NEGATIVO,1708,Legalización del aborto,14/06/2018,https://votaciones.hcdn.gob.ar/3805.pdf,
1238,"Contigiani,  Luis Gustavo",SANTA FE,FRENTE PROGRESISTA CÍVICO Y SOCIAL,Otros,NEGATIVO,1708,Legalización del aborto,14/06/2018,https://votaciones.hcdn.gob.ar/3805.pdf,
1269,"Medina,  Gladys",TUCUMÁN,JUSTICIALISTA POR TUCUMÁN,PJ ,NEGATIVO,1708,Legalización del aborto,14/06/2018,https://votaciones.hcdn.gob.ar/3805.pdf,
1270,"Medina,  Martín Nicolás",BUENOS AIRES,PRO,Cambiemos,NEGATIVO,1708,Legalización del aborto,14/06/2018,https://votaciones.hcdn.gob.ar/3805.pdf,
598,"Mestre,  Diego Matías",CÓRDOBA,UNIÓN CÍVICA RADICAL,Cambiemos,NEGATIVO,1708,Legalización del aborto,14/06/2018,https://votaciones.hcdn.gob.ar/3805.pdf,
1236,"Cassinerio,  Paulo Leonardo",CÓRDOBA,CÓRDOBA FEDERAL,PJ ,NEGATIVO,1708,Legalización del aborto,14/06/2018,https://votaciones.hcdn.gob.ar/3805.pdf,
852,"Molina., Karina",LA RIOJA,PRO,Cambiemos,NEGATIVO,1708,Legalización del aborto,14/06/2018,https://votaciones.hcdn.gob.ar/3805.pdf,
1273,"Monaldi,  Osmar",JUJUY,PRO,Cambiemos,NEGATIVO,1708,Legalización del aborto,14/06/2018,https://votaciones.hcdn.gob.ar/3805.pdf,
879,"Monfort., Marcelo Alejandro",ENTRE RÍOS,UNIÓN CÍVICA RADICAL,Cambiemos,NEGATIVO,1708,Legalización del aborto,14/06/2018,https://votaciones.hcdn.gob.ar/3805.pdf,
1274,"Montenegro,  Guillermo Tristán",BUENOS AIRES,PRO,Cambiemos,NEGATIVO,1708,Legalización del aborto,14/06/2018,https://votaciones.hcdn.gob.ar/3805.pdf,
124,"Caselles.,  Graciela María",SAN JUAN,PARTIDO BLOQUISTA DE SAN JUAN,Otros,NEGATIVO,1708,Legalización del aborto,14/06/2018,https://votaciones.hcdn.gob.ar/3805.pdf,
1275,"Morales,  Flavia",MISIONES,FRENTE DE LA CONCORDIA MISIONERO,Otros,NEGATIVO,1708,Legalización del aborto,14/06/2018,https://votaciones.hcdn.gob.ar/3805.pdf,
825,"Morales., Mariana",SANTIAGO DEL ESTERO,FEDERAL UNIDOS POR UNA NUEVA ARGENTINA,Massismo y aliados,NEGATIVO,1708,Legalización del aborto,14/06/2018,https://votaciones.hcdn.gob.ar/3805.pdf,
1234,"Carrizo,  Soledad",CÓRDOBA,UNIÓN CÍVICA RADICAL,Cambiemos,NEGATIVO,1708,Legalización del aborto,14/06/2018,https://votaciones.hcdn.gob.ar/3805.pdf,
1281,"Pertile,  Elda",CHACO,JUSTICIALISTA,PJ ,NEGATIVO,1708,Legalización del aborto,14/06/2018,https://votaciones.hcdn.gob.ar/3805.pdf,
